%TF.GenerationSoftware,KiCad,Pcbnew,5.1.6+dfsg1-1~bpo10+1*%
%TF.CreationDate,2020-09-04T19:15:19+02:00*%
%TF.ProjectId,HWSB,48575342-2e6b-4696-9361-645f70636258,0.2*%
%TF.SameCoordinates,Original*%
%TF.FileFunction,Other,User*%
%FSLAX46Y46*%
G04 Gerber Fmt 4.6, Leading zero omitted, Abs format (unit mm)*
G04 Created by KiCad (PCBNEW 5.1.6+dfsg1-1~bpo10+1) date 2020-09-04 19:15:19*
%MOMM*%
%LPD*%
G01*
G04 APERTURE LIST*
%ADD10C,0.050000*%
G04 APERTURE END LIST*
D10*
%TO.C,Q1*%
X159960000Y-69386000D02*
X156560000Y-69386000D01*
X156560000Y-69386000D02*
X156560000Y-72886000D01*
X156560000Y-72886000D02*
X159960000Y-72886000D01*
X159960000Y-72886000D02*
X159960000Y-69386000D01*
%TO.C,Q2*%
X156150000Y-72886000D02*
X156150000Y-69386000D01*
X152750000Y-72886000D02*
X156150000Y-72886000D01*
X152750000Y-69386000D02*
X152750000Y-72886000D01*
X156150000Y-69386000D02*
X152750000Y-69386000D01*
%TO.C,Q3*%
X152340000Y-69386000D02*
X148940000Y-69386000D01*
X148940000Y-69386000D02*
X148940000Y-72886000D01*
X148940000Y-72886000D02*
X152340000Y-72886000D01*
X152340000Y-72886000D02*
X152340000Y-69386000D01*
%TO.C,Q4*%
X148530000Y-72886000D02*
X148530000Y-69386000D01*
X145130000Y-72886000D02*
X148530000Y-72886000D01*
X145130000Y-69386000D02*
X145130000Y-72886000D01*
X148530000Y-69386000D02*
X145130000Y-69386000D01*
%TO.C,Q5*%
X144720000Y-72886000D02*
X144720000Y-69386000D01*
X141320000Y-72886000D02*
X144720000Y-72886000D01*
X141320000Y-69386000D02*
X141320000Y-72886000D01*
X144720000Y-69386000D02*
X141320000Y-69386000D01*
%TO.C,Q6*%
X140910000Y-69386000D02*
X137510000Y-69386000D01*
X137510000Y-69386000D02*
X137510000Y-72886000D01*
X137510000Y-72886000D02*
X140910000Y-72886000D01*
X140910000Y-72886000D02*
X140910000Y-69386000D01*
%TO.C,Q7*%
X137100000Y-72886000D02*
X137100000Y-69386000D01*
X133700000Y-72886000D02*
X137100000Y-72886000D01*
X133700000Y-69386000D02*
X133700000Y-72886000D01*
X137100000Y-69386000D02*
X133700000Y-69386000D01*
%TO.C,Q8*%
X133290000Y-69386000D02*
X129890000Y-69386000D01*
X129890000Y-69386000D02*
X129890000Y-72886000D01*
X129890000Y-72886000D02*
X133290000Y-72886000D01*
X133290000Y-72886000D02*
X133290000Y-69386000D01*
%TO.C,R2*%
X154638000Y-78150000D02*
X154638000Y-74790000D01*
X152738000Y-78150000D02*
X154638000Y-78150000D01*
X152738000Y-74790000D02*
X152738000Y-78150000D01*
X154638000Y-74790000D02*
X152738000Y-74790000D01*
%TO.C,R3*%
X152352000Y-78150000D02*
X152352000Y-74790000D01*
X150452000Y-78150000D02*
X152352000Y-78150000D01*
X150452000Y-74790000D02*
X150452000Y-78150000D01*
X152352000Y-74790000D02*
X150452000Y-74790000D01*
%TO.C,R4*%
X150066000Y-78150000D02*
X150066000Y-74790000D01*
X148166000Y-78150000D02*
X150066000Y-78150000D01*
X148166000Y-74790000D02*
X148166000Y-78150000D01*
X150066000Y-74790000D02*
X148166000Y-74790000D01*
%TO.C,R5*%
X147780000Y-78150000D02*
X147780000Y-74790000D01*
X145880000Y-78150000D02*
X147780000Y-78150000D01*
X145880000Y-74790000D02*
X145880000Y-78150000D01*
X147780000Y-74790000D02*
X145880000Y-74790000D01*
%TO.C,R6*%
X145494000Y-74868500D02*
X143594000Y-74868500D01*
X143594000Y-74868500D02*
X143594000Y-78228500D01*
X143594000Y-78228500D02*
X145494000Y-78228500D01*
X145494000Y-78228500D02*
X145494000Y-74868500D01*
%TO.C,R7*%
X143208000Y-74790000D02*
X141308000Y-74790000D01*
X141308000Y-74790000D02*
X141308000Y-78150000D01*
X141308000Y-78150000D02*
X143208000Y-78150000D01*
X143208000Y-78150000D02*
X143208000Y-74790000D01*
%TO.C,R8*%
X140922000Y-74868500D02*
X139022000Y-74868500D01*
X139022000Y-74868500D02*
X139022000Y-78228500D01*
X139022000Y-78228500D02*
X140922000Y-78228500D01*
X140922000Y-78228500D02*
X140922000Y-74868500D01*
%TO.C,R9*%
X138636000Y-74868500D02*
X136736000Y-74868500D01*
X136736000Y-74868500D02*
X136736000Y-78228500D01*
X136736000Y-78228500D02*
X138636000Y-78228500D01*
X138636000Y-78228500D02*
X138636000Y-74868500D01*
%TO.C,U2*%
X115732000Y-84718000D02*
X108332000Y-84718000D01*
X115732000Y-74318000D02*
X115732000Y-84718000D01*
X108332000Y-74318000D02*
X115732000Y-74318000D01*
X108332000Y-84718000D02*
X108332000Y-74318000D01*
%TD*%
M02*
