%TF.GenerationSoftware,KiCad,Pcbnew,5.1.6+dfsg1-1~bpo10+1*%
%TF.CreationDate,2020-09-04T19:15:19+02:00*%
%TF.ProjectId,HWSB,48575342-2e6b-4696-9361-645f70636258,0.2*%
%TF.SameCoordinates,Original*%
%TF.FileFunction,Other,User*%
%FSLAX46Y46*%
G04 Gerber Fmt 4.6, Leading zero omitted, Abs format (unit mm)*
G04 Created by KiCad (PCBNEW 5.1.6+dfsg1-1~bpo10+1) date 2020-09-04 19:15:19*
%MOMM*%
%LPD*%
G01*
G04 APERTURE LIST*
%ADD10C,0.050000*%
G04 APERTURE END LIST*
D10*
%TO.C,C1*%
X109018000Y-84116000D02*
X109018000Y-83166000D01*
X106918000Y-84116000D02*
X109018000Y-84116000D01*
X106918000Y-83166000D02*
X106918000Y-84116000D01*
X109018000Y-83166000D02*
X109218000Y-83166000D01*
X106718000Y-83166000D02*
X106918000Y-83166000D01*
X106718000Y-83166000D02*
X105568000Y-82016000D01*
X109218000Y-83166000D02*
X110368000Y-82016000D01*
X105568000Y-82016000D02*
X105568000Y-78366000D01*
X110368000Y-82016000D02*
X110368000Y-78366000D01*
X109018000Y-78366000D02*
X110368000Y-78366000D01*
X109018000Y-77416000D02*
X109018000Y-78366000D01*
X106918000Y-77416000D02*
X109018000Y-77416000D01*
X106918000Y-78366000D02*
X106918000Y-77416000D01*
X105568000Y-78366000D02*
X106918000Y-78366000D01*
%TO.C,C2*%
X127560000Y-75016000D02*
X127560000Y-74066000D01*
X125460000Y-75016000D02*
X127560000Y-75016000D01*
X125460000Y-74066000D02*
X125460000Y-75016000D01*
X127560000Y-74066000D02*
X127760000Y-74066000D01*
X125260000Y-74066000D02*
X125460000Y-74066000D01*
X125260000Y-74066000D02*
X124110000Y-72916000D01*
X127760000Y-74066000D02*
X128910000Y-72916000D01*
X124110000Y-72916000D02*
X124110000Y-69266000D01*
X128910000Y-72916000D02*
X128910000Y-69266000D01*
X127560000Y-69266000D02*
X128910000Y-69266000D01*
X127560000Y-68316000D02*
X127560000Y-69266000D01*
X125460000Y-68316000D02*
X127560000Y-68316000D01*
X125460000Y-69266000D02*
X125460000Y-68316000D01*
X124110000Y-69266000D02*
X125460000Y-69266000D01*
%TO.C,C3*%
X110368000Y-75038000D02*
X109018000Y-75038000D01*
X109018000Y-75038000D02*
X109018000Y-75988000D01*
X109018000Y-75988000D02*
X106918000Y-75988000D01*
X106918000Y-75988000D02*
X106918000Y-75038000D01*
X106918000Y-75038000D02*
X105568000Y-75038000D01*
X105568000Y-71388000D02*
X105568000Y-75038000D01*
X110368000Y-71388000D02*
X110368000Y-75038000D01*
X106718000Y-70238000D02*
X105568000Y-71388000D01*
X109218000Y-70238000D02*
X110368000Y-71388000D01*
X109218000Y-70238000D02*
X109018000Y-70238000D01*
X106918000Y-70238000D02*
X106718000Y-70238000D01*
X109018000Y-70238000D02*
X109018000Y-69288000D01*
X109018000Y-69288000D02*
X106918000Y-69288000D01*
X106918000Y-69288000D02*
X106918000Y-70238000D01*
%TO.C,D1*%
X156252000Y-83558000D02*
X159252000Y-83558000D01*
X156252000Y-78558000D02*
X156252000Y-83558000D01*
X159252000Y-78558000D02*
X156252000Y-78558000D01*
X159252000Y-83558000D02*
X159252000Y-78558000D01*
%TO.C,D2*%
X152950000Y-83558000D02*
X155950000Y-83558000D01*
X152950000Y-78558000D02*
X152950000Y-83558000D01*
X155950000Y-78558000D02*
X152950000Y-78558000D01*
X155950000Y-83558000D02*
X155950000Y-78558000D01*
%TO.C,D3*%
X152648000Y-83558000D02*
X152648000Y-78558000D01*
X152648000Y-78558000D02*
X149648000Y-78558000D01*
X149648000Y-78558000D02*
X149648000Y-83558000D01*
X149648000Y-83558000D02*
X152648000Y-83558000D01*
%TO.C,D4*%
X149346000Y-83558000D02*
X149346000Y-78558000D01*
X149346000Y-78558000D02*
X146346000Y-78558000D01*
X146346000Y-78558000D02*
X146346000Y-83558000D01*
X146346000Y-83558000D02*
X149346000Y-83558000D01*
%TO.C,D5*%
X146044000Y-83558000D02*
X146044000Y-78558000D01*
X146044000Y-78558000D02*
X143044000Y-78558000D01*
X143044000Y-78558000D02*
X143044000Y-83558000D01*
X143044000Y-83558000D02*
X146044000Y-83558000D01*
%TO.C,D6*%
X139742000Y-83558000D02*
X142742000Y-83558000D01*
X139742000Y-78558000D02*
X139742000Y-83558000D01*
X142742000Y-78558000D02*
X139742000Y-78558000D01*
X142742000Y-83558000D02*
X142742000Y-78558000D01*
%TO.C,D7*%
X136440000Y-83558000D02*
X139440000Y-83558000D01*
X136440000Y-78558000D02*
X136440000Y-83558000D01*
X139440000Y-78558000D02*
X136440000Y-78558000D01*
X139440000Y-83558000D02*
X139440000Y-78558000D01*
%TO.C,D8*%
X133138000Y-83558000D02*
X136138000Y-83558000D01*
X133138000Y-78558000D02*
X133138000Y-83558000D01*
X136138000Y-78558000D02*
X133138000Y-78558000D01*
X136138000Y-83558000D02*
X136138000Y-78558000D01*
%TO.C,-   +*%
X126994000Y-83526000D02*
X126994000Y-78526000D01*
X126994000Y-78526000D02*
X123994000Y-78526000D01*
X123994000Y-78526000D02*
X123994000Y-83526000D01*
X123994000Y-83526000D02*
X126994000Y-83526000D01*
%TO.C,- spker +*%
X132074000Y-83558000D02*
X132074000Y-78558000D01*
X132074000Y-78558000D02*
X129074000Y-78558000D01*
X129074000Y-78558000D02*
X129074000Y-83558000D01*
X129074000Y-83558000D02*
X132074000Y-83558000D01*
%TO.C,R1*%
X120856000Y-79870000D02*
X120856000Y-83230000D01*
X118956000Y-79870000D02*
X120856000Y-79870000D01*
X118956000Y-83230000D02*
X118956000Y-79870000D01*
X120856000Y-83230000D02*
X118956000Y-83230000D01*
%TO.C,R10*%
X118472000Y-76524000D02*
X123522000Y-76524000D01*
X123522000Y-76524000D02*
X123522000Y-69274000D01*
X123522000Y-69274000D02*
X118472000Y-69274000D01*
X118472000Y-69274000D02*
X118472000Y-76524000D01*
%TO.C,RV1*%
X154540000Y-60638000D02*
X154540000Y-67888000D01*
X159590000Y-60638000D02*
X154540000Y-60638000D01*
X159590000Y-67888000D02*
X159590000Y-60638000D01*
X154540000Y-67888000D02*
X159590000Y-67888000D01*
%TO.C,RV2*%
X147682000Y-67888000D02*
X152732000Y-67888000D01*
X152732000Y-67888000D02*
X152732000Y-60638000D01*
X152732000Y-60638000D02*
X147682000Y-60638000D01*
X147682000Y-60638000D02*
X147682000Y-67888000D01*
%TO.C,RV3*%
X140824000Y-60638000D02*
X140824000Y-67888000D01*
X145874000Y-60638000D02*
X140824000Y-60638000D01*
X145874000Y-67888000D02*
X145874000Y-60638000D01*
X140824000Y-67888000D02*
X145874000Y-67888000D01*
%TO.C,RV4*%
X133966000Y-67888000D02*
X139016000Y-67888000D01*
X139016000Y-67888000D02*
X139016000Y-60638000D01*
X139016000Y-60638000D02*
X133966000Y-60638000D01*
X133966000Y-60638000D02*
X133966000Y-67888000D01*
%TO.C,RV5*%
X127362000Y-60638000D02*
X127362000Y-67888000D01*
X132412000Y-60638000D02*
X127362000Y-60638000D01*
X132412000Y-67888000D02*
X132412000Y-60638000D01*
X127362000Y-67888000D02*
X132412000Y-67888000D01*
%TO.C,RV6*%
X120504000Y-60638000D02*
X120504000Y-67888000D01*
X125554000Y-60638000D02*
X120504000Y-60638000D01*
X125554000Y-67888000D02*
X125554000Y-60638000D01*
X120504000Y-67888000D02*
X125554000Y-67888000D01*
%TO.C,RV7*%
X113900000Y-67888000D02*
X118950000Y-67888000D01*
X118950000Y-67888000D02*
X118950000Y-60638000D01*
X118950000Y-60638000D02*
X113900000Y-60638000D01*
X113900000Y-60638000D02*
X113900000Y-67888000D01*
%TO.C,RV8*%
X107296000Y-60638000D02*
X107296000Y-67888000D01*
X112346000Y-60638000D02*
X107296000Y-60638000D01*
X112346000Y-67888000D02*
X112346000Y-60638000D01*
X107296000Y-67888000D02*
X112346000Y-67888000D01*
%TO.C,U1*%
X118272000Y-79104000D02*
X110872000Y-79104000D01*
X118272000Y-84504000D02*
X118272000Y-79104000D01*
X110872000Y-84504000D02*
X118272000Y-84504000D01*
X110872000Y-79104000D02*
X110872000Y-84504000D01*
%TO.C,U3*%
X111872000Y-76360000D02*
X117272000Y-76360000D01*
X117272000Y-76360000D02*
X117272000Y-68960000D01*
X117272000Y-68960000D02*
X111872000Y-68960000D01*
X111872000Y-68960000D02*
X111872000Y-76360000D01*
%TD*%
M02*
