M48
; DRILL file {KiCad 5.1.6+dfsg1-1~bpo10+1} date Fri Sep  4 19:15:16 2020
; FORMAT={-:-/ absolute / metric / decimal}
; #@! TF.CreationDate,2020-09-04T19:15:16+02:00
; #@! TF.GenerationSoftware,Kicad,Pcbnew,5.1.6+dfsg1-1~bpo10+1
; #@! TF.FileFunction,Plated,3,4,Blind
FMAT,2
METRIC
T1C0.400
%
G90
G05
T1
X111.524Y-76.724
X121.176Y-78.756
X125.494Y-83.582
X130.574Y-83.582
X134.638Y-83.582
X137.94Y-83.582
X141.242Y-83.582
X144.544Y-83.582
X147.846Y-83.582
X151.148Y-83.582
X154.45Y-83.582
X157.752Y-83.582
T0
M30
