%TF.GenerationSoftware,KiCad,Pcbnew,5.1.6+dfsg1-1~bpo10+1*%
%TF.CreationDate,2020-09-04T19:15:19+02:00*%
%TF.ProjectId,HWSB,48575342-2e6b-4696-9361-645f70636258,0.2*%
%TF.SameCoordinates,Original*%
%TF.FileFunction,Legend,Top*%
%TF.FilePolarity,Positive*%
%FSLAX46Y46*%
G04 Gerber Fmt 4.6, Leading zero omitted, Abs format (unit mm)*
G04 Created by KiCad (PCBNEW 5.1.6+dfsg1-1~bpo10+1) date 2020-09-04 19:15:19*
%MOMM*%
%LPD*%
G01*
G04 APERTURE LIST*
%ADD10C,0.120000*%
%ADD11C,0.150000*%
G04 APERTURE END LIST*
D10*
%TO.C,C1*%
X106158000Y-83516000D02*
X106658000Y-83516000D01*
X106408000Y-83766000D02*
X106408000Y-83266000D01*
X109163563Y-83026000D02*
X110228000Y-81961563D01*
X106772437Y-83026000D02*
X105708000Y-81961563D01*
X106772437Y-83026000D02*
X106908000Y-83026000D01*
X109163563Y-83026000D02*
X109028000Y-83026000D01*
X110228000Y-81961563D02*
X110228000Y-78506000D01*
X105708000Y-81961563D02*
X105708000Y-78506000D01*
X105708000Y-78506000D02*
X106908000Y-78506000D01*
X110228000Y-78506000D02*
X109028000Y-78506000D01*
%TO.C,C2*%
X124700000Y-74416000D02*
X125200000Y-74416000D01*
X124950000Y-74666000D02*
X124950000Y-74166000D01*
X127705563Y-73926000D02*
X128770000Y-72861563D01*
X125314437Y-73926000D02*
X124250000Y-72861563D01*
X125314437Y-73926000D02*
X125450000Y-73926000D01*
X127705563Y-73926000D02*
X127570000Y-73926000D01*
X128770000Y-72861563D02*
X128770000Y-69406000D01*
X124250000Y-72861563D02*
X124250000Y-69406000D01*
X124250000Y-69406000D02*
X125450000Y-69406000D01*
X128770000Y-69406000D02*
X127570000Y-69406000D01*
%TO.C,C3*%
X105708000Y-74898000D02*
X106908000Y-74898000D01*
X110228000Y-74898000D02*
X109028000Y-74898000D01*
X110228000Y-71442437D02*
X110228000Y-74898000D01*
X105708000Y-71442437D02*
X105708000Y-74898000D01*
X106772437Y-70378000D02*
X106908000Y-70378000D01*
X109163563Y-70378000D02*
X109028000Y-70378000D01*
X109163563Y-70378000D02*
X110228000Y-71442437D01*
X106772437Y-70378000D02*
X105708000Y-71442437D01*
X109528000Y-69638000D02*
X109528000Y-70138000D01*
X109778000Y-69888000D02*
X109278000Y-69888000D01*
%TO.C,D1*%
X158812000Y-83118000D02*
X157752000Y-83118000D01*
X158812000Y-82058000D02*
X158812000Y-83118000D01*
X158812000Y-81058000D02*
X156692000Y-81058000D01*
X156692000Y-81058000D02*
X156692000Y-78998000D01*
X158812000Y-81058000D02*
X158812000Y-78998000D01*
X158812000Y-78998000D02*
X156692000Y-78998000D01*
%TO.C,D2*%
X155510000Y-83118000D02*
X154450000Y-83118000D01*
X155510000Y-82058000D02*
X155510000Y-83118000D01*
X155510000Y-81058000D02*
X153390000Y-81058000D01*
X153390000Y-81058000D02*
X153390000Y-78998000D01*
X155510000Y-81058000D02*
X155510000Y-78998000D01*
X155510000Y-78998000D02*
X153390000Y-78998000D01*
%TO.C,D3*%
X152208000Y-78998000D02*
X150088000Y-78998000D01*
X152208000Y-81058000D02*
X152208000Y-78998000D01*
X150088000Y-81058000D02*
X150088000Y-78998000D01*
X152208000Y-81058000D02*
X150088000Y-81058000D01*
X152208000Y-82058000D02*
X152208000Y-83118000D01*
X152208000Y-83118000D02*
X151148000Y-83118000D01*
%TO.C,D4*%
X148906000Y-78998000D02*
X146786000Y-78998000D01*
X148906000Y-81058000D02*
X148906000Y-78998000D01*
X146786000Y-81058000D02*
X146786000Y-78998000D01*
X148906000Y-81058000D02*
X146786000Y-81058000D01*
X148906000Y-82058000D02*
X148906000Y-83118000D01*
X148906000Y-83118000D02*
X147846000Y-83118000D01*
%TO.C,D5*%
X145604000Y-78998000D02*
X143484000Y-78998000D01*
X145604000Y-81058000D02*
X145604000Y-78998000D01*
X143484000Y-81058000D02*
X143484000Y-78998000D01*
X145604000Y-81058000D02*
X143484000Y-81058000D01*
X145604000Y-82058000D02*
X145604000Y-83118000D01*
X145604000Y-83118000D02*
X144544000Y-83118000D01*
%TO.C,D6*%
X142302000Y-83118000D02*
X141242000Y-83118000D01*
X142302000Y-82058000D02*
X142302000Y-83118000D01*
X142302000Y-81058000D02*
X140182000Y-81058000D01*
X140182000Y-81058000D02*
X140182000Y-78998000D01*
X142302000Y-81058000D02*
X142302000Y-78998000D01*
X142302000Y-78998000D02*
X140182000Y-78998000D01*
%TO.C,D7*%
X139000000Y-83118000D02*
X137940000Y-83118000D01*
X139000000Y-82058000D02*
X139000000Y-83118000D01*
X139000000Y-81058000D02*
X136880000Y-81058000D01*
X136880000Y-81058000D02*
X136880000Y-78998000D01*
X139000000Y-81058000D02*
X139000000Y-78998000D01*
X139000000Y-78998000D02*
X136880000Y-78998000D01*
%TO.C,D8*%
X135698000Y-83118000D02*
X134638000Y-83118000D01*
X135698000Y-82058000D02*
X135698000Y-83118000D01*
X135698000Y-81058000D02*
X133578000Y-81058000D01*
X133578000Y-81058000D02*
X133578000Y-78998000D01*
X135698000Y-81058000D02*
X135698000Y-78998000D01*
X135698000Y-78998000D02*
X133578000Y-78998000D01*
%TO.C,-   +*%
X126554000Y-78966000D02*
X124434000Y-78966000D01*
X126554000Y-81026000D02*
X126554000Y-78966000D01*
X124434000Y-81026000D02*
X124434000Y-78966000D01*
X126554000Y-81026000D02*
X124434000Y-81026000D01*
X126554000Y-82026000D02*
X126554000Y-83086000D01*
X126554000Y-83086000D02*
X125494000Y-83086000D01*
%TO.C,- spker +*%
X131634000Y-78998000D02*
X129514000Y-78998000D01*
X131634000Y-81058000D02*
X131634000Y-78998000D01*
X129514000Y-81058000D02*
X129514000Y-78998000D01*
X131634000Y-81058000D02*
X129514000Y-81058000D01*
X131634000Y-82058000D02*
X131634000Y-83118000D01*
X131634000Y-83118000D02*
X130574000Y-83118000D01*
%TO.C,R1*%
X120616000Y-81808578D02*
X120616000Y-81291422D01*
X119196000Y-81808578D02*
X119196000Y-81291422D01*
%TO.C,R10*%
X118642000Y-76389000D02*
X118642000Y-69439000D01*
X123382000Y-76389000D02*
X123382000Y-69439000D01*
X118642000Y-76389000D02*
X120428000Y-76389000D01*
X121418000Y-76389000D02*
X123382000Y-76389000D01*
X118642000Y-69439000D02*
X120428000Y-69439000D01*
X121418000Y-69439000D02*
X123382000Y-69439000D01*
%TO.C,RV1*%
X157486000Y-60803000D02*
X159450000Y-60803000D01*
X154710000Y-60803000D02*
X156496000Y-60803000D01*
X157486000Y-67753000D02*
X159450000Y-67753000D01*
X154710000Y-67753000D02*
X156496000Y-67753000D01*
X159450000Y-67753000D02*
X159450000Y-60803000D01*
X154710000Y-67753000D02*
X154710000Y-60803000D01*
%TO.C,RV2*%
X147852000Y-67753000D02*
X147852000Y-60803000D01*
X152592000Y-67753000D02*
X152592000Y-60803000D01*
X147852000Y-67753000D02*
X149638000Y-67753000D01*
X150628000Y-67753000D02*
X152592000Y-67753000D01*
X147852000Y-60803000D02*
X149638000Y-60803000D01*
X150628000Y-60803000D02*
X152592000Y-60803000D01*
%TO.C,RV3*%
X143770000Y-60803000D02*
X145734000Y-60803000D01*
X140994000Y-60803000D02*
X142780000Y-60803000D01*
X143770000Y-67753000D02*
X145734000Y-67753000D01*
X140994000Y-67753000D02*
X142780000Y-67753000D01*
X145734000Y-67753000D02*
X145734000Y-60803000D01*
X140994000Y-67753000D02*
X140994000Y-60803000D01*
%TO.C,RV4*%
X134136000Y-67753000D02*
X134136000Y-60803000D01*
X138876000Y-67753000D02*
X138876000Y-60803000D01*
X134136000Y-67753000D02*
X135922000Y-67753000D01*
X136912000Y-67753000D02*
X138876000Y-67753000D01*
X134136000Y-60803000D02*
X135922000Y-60803000D01*
X136912000Y-60803000D02*
X138876000Y-60803000D01*
%TO.C,RV5*%
X130308000Y-60803000D02*
X132272000Y-60803000D01*
X127532000Y-60803000D02*
X129318000Y-60803000D01*
X130308000Y-67753000D02*
X132272000Y-67753000D01*
X127532000Y-67753000D02*
X129318000Y-67753000D01*
X132272000Y-67753000D02*
X132272000Y-60803000D01*
X127532000Y-67753000D02*
X127532000Y-60803000D01*
%TO.C,RV6*%
X123450000Y-60803000D02*
X125414000Y-60803000D01*
X120674000Y-60803000D02*
X122460000Y-60803000D01*
X123450000Y-67753000D02*
X125414000Y-67753000D01*
X120674000Y-67753000D02*
X122460000Y-67753000D01*
X125414000Y-67753000D02*
X125414000Y-60803000D01*
X120674000Y-67753000D02*
X120674000Y-60803000D01*
%TO.C,RV7*%
X114070000Y-67753000D02*
X114070000Y-60803000D01*
X118810000Y-67753000D02*
X118810000Y-60803000D01*
X114070000Y-67753000D02*
X115856000Y-67753000D01*
X116846000Y-67753000D02*
X118810000Y-67753000D01*
X114070000Y-60803000D02*
X115856000Y-60803000D01*
X116846000Y-60803000D02*
X118810000Y-60803000D01*
%TO.C,RV8*%
X110242000Y-60803000D02*
X112206000Y-60803000D01*
X107466000Y-60803000D02*
X109252000Y-60803000D01*
X110242000Y-67753000D02*
X112206000Y-67753000D01*
X107466000Y-67753000D02*
X109252000Y-67753000D01*
X112206000Y-67753000D02*
X112206000Y-60803000D01*
X107466000Y-67753000D02*
X107466000Y-60803000D01*
%TO.C,U1*%
X114572000Y-79244000D02*
X111122000Y-79244000D01*
X114572000Y-79244000D02*
X116522000Y-79244000D01*
X114572000Y-84364000D02*
X112622000Y-84364000D01*
X114572000Y-84364000D02*
X116522000Y-84364000D01*
%TO.C,U3*%
X117132000Y-72660000D02*
X117132000Y-70710000D01*
X117132000Y-72660000D02*
X117132000Y-74610000D01*
X112012000Y-72660000D02*
X112012000Y-70710000D01*
X112012000Y-72660000D02*
X112012000Y-76110000D01*
%TO.C,C1*%
D11*
X106277333Y-77589142D02*
X106229714Y-77636761D01*
X106086857Y-77684380D01*
X105991619Y-77684380D01*
X105848761Y-77636761D01*
X105753523Y-77541523D01*
X105705904Y-77446285D01*
X105658285Y-77255809D01*
X105658285Y-77112952D01*
X105705904Y-76922476D01*
X105753523Y-76827238D01*
X105848761Y-76732000D01*
X105991619Y-76684380D01*
X106086857Y-76684380D01*
X106229714Y-76732000D01*
X106277333Y-76779619D01*
X107229714Y-77684380D02*
X106658285Y-77684380D01*
X106944000Y-77684380D02*
X106944000Y-76684380D01*
X106848761Y-76827238D01*
X106753523Y-76922476D01*
X106658285Y-76970095D01*
%TO.C,C2*%
X130423142Y-72064666D02*
X130470761Y-72112285D01*
X130518380Y-72255142D01*
X130518380Y-72350380D01*
X130470761Y-72493238D01*
X130375523Y-72588476D01*
X130280285Y-72636095D01*
X130089809Y-72683714D01*
X129946952Y-72683714D01*
X129756476Y-72636095D01*
X129661238Y-72588476D01*
X129566000Y-72493238D01*
X129518380Y-72350380D01*
X129518380Y-72255142D01*
X129566000Y-72112285D01*
X129613619Y-72064666D01*
X129613619Y-71683714D02*
X129566000Y-71636095D01*
X129518380Y-71540857D01*
X129518380Y-71302761D01*
X129566000Y-71207523D01*
X129613619Y-71159904D01*
X129708857Y-71112285D01*
X129804095Y-71112285D01*
X129946952Y-71159904D01*
X130518380Y-71731333D01*
X130518380Y-71112285D01*
%TO.C,C3*%
X110341333Y-69715142D02*
X110293714Y-69762761D01*
X110150857Y-69810380D01*
X110055619Y-69810380D01*
X109912761Y-69762761D01*
X109817523Y-69667523D01*
X109769904Y-69572285D01*
X109722285Y-69381809D01*
X109722285Y-69238952D01*
X109769904Y-69048476D01*
X109817523Y-68953238D01*
X109912761Y-68858000D01*
X110055619Y-68810380D01*
X110150857Y-68810380D01*
X110293714Y-68858000D01*
X110341333Y-68905619D01*
X110674666Y-68810380D02*
X111293714Y-68810380D01*
X110960380Y-69191333D01*
X111103238Y-69191333D01*
X111198476Y-69238952D01*
X111246095Y-69286571D01*
X111293714Y-69381809D01*
X111293714Y-69619904D01*
X111246095Y-69715142D01*
X111198476Y-69762761D01*
X111103238Y-69810380D01*
X110817523Y-69810380D01*
X110722285Y-69762761D01*
X110674666Y-69715142D01*
%TO.C,D1*%
X157013904Y-84570380D02*
X157013904Y-83570380D01*
X157252000Y-83570380D01*
X157394857Y-83618000D01*
X157490095Y-83713238D01*
X157537714Y-83808476D01*
X157585333Y-83998952D01*
X157585333Y-84141809D01*
X157537714Y-84332285D01*
X157490095Y-84427523D01*
X157394857Y-84522761D01*
X157252000Y-84570380D01*
X157013904Y-84570380D01*
X158537714Y-84570380D02*
X157966285Y-84570380D01*
X158252000Y-84570380D02*
X158252000Y-83570380D01*
X158156761Y-83713238D01*
X158061523Y-83808476D01*
X157966285Y-83856095D01*
%TO.C,D2*%
X153711904Y-84570380D02*
X153711904Y-83570380D01*
X153950000Y-83570380D01*
X154092857Y-83618000D01*
X154188095Y-83713238D01*
X154235714Y-83808476D01*
X154283333Y-83998952D01*
X154283333Y-84141809D01*
X154235714Y-84332285D01*
X154188095Y-84427523D01*
X154092857Y-84522761D01*
X153950000Y-84570380D01*
X153711904Y-84570380D01*
X154664285Y-83665619D02*
X154711904Y-83618000D01*
X154807142Y-83570380D01*
X155045238Y-83570380D01*
X155140476Y-83618000D01*
X155188095Y-83665619D01*
X155235714Y-83760857D01*
X155235714Y-83856095D01*
X155188095Y-83998952D01*
X154616666Y-84570380D01*
X155235714Y-84570380D01*
%TO.C,D3*%
X150409904Y-84570380D02*
X150409904Y-83570380D01*
X150648000Y-83570380D01*
X150790857Y-83618000D01*
X150886095Y-83713238D01*
X150933714Y-83808476D01*
X150981333Y-83998952D01*
X150981333Y-84141809D01*
X150933714Y-84332285D01*
X150886095Y-84427523D01*
X150790857Y-84522761D01*
X150648000Y-84570380D01*
X150409904Y-84570380D01*
X151314666Y-83570380D02*
X151933714Y-83570380D01*
X151600380Y-83951333D01*
X151743238Y-83951333D01*
X151838476Y-83998952D01*
X151886095Y-84046571D01*
X151933714Y-84141809D01*
X151933714Y-84379904D01*
X151886095Y-84475142D01*
X151838476Y-84522761D01*
X151743238Y-84570380D01*
X151457523Y-84570380D01*
X151362285Y-84522761D01*
X151314666Y-84475142D01*
%TO.C,D4*%
X147107904Y-84570380D02*
X147107904Y-83570380D01*
X147346000Y-83570380D01*
X147488857Y-83618000D01*
X147584095Y-83713238D01*
X147631714Y-83808476D01*
X147679333Y-83998952D01*
X147679333Y-84141809D01*
X147631714Y-84332285D01*
X147584095Y-84427523D01*
X147488857Y-84522761D01*
X147346000Y-84570380D01*
X147107904Y-84570380D01*
X148536476Y-83903714D02*
X148536476Y-84570380D01*
X148298380Y-83522761D02*
X148060285Y-84237047D01*
X148679333Y-84237047D01*
%TO.C,D5*%
X143805904Y-84570380D02*
X143805904Y-83570380D01*
X144044000Y-83570380D01*
X144186857Y-83618000D01*
X144282095Y-83713238D01*
X144329714Y-83808476D01*
X144377333Y-83998952D01*
X144377333Y-84141809D01*
X144329714Y-84332285D01*
X144282095Y-84427523D01*
X144186857Y-84522761D01*
X144044000Y-84570380D01*
X143805904Y-84570380D01*
X145282095Y-83570380D02*
X144805904Y-83570380D01*
X144758285Y-84046571D01*
X144805904Y-83998952D01*
X144901142Y-83951333D01*
X145139238Y-83951333D01*
X145234476Y-83998952D01*
X145282095Y-84046571D01*
X145329714Y-84141809D01*
X145329714Y-84379904D01*
X145282095Y-84475142D01*
X145234476Y-84522761D01*
X145139238Y-84570380D01*
X144901142Y-84570380D01*
X144805904Y-84522761D01*
X144758285Y-84475142D01*
%TO.C,D6*%
X140503904Y-84570380D02*
X140503904Y-83570380D01*
X140742000Y-83570380D01*
X140884857Y-83618000D01*
X140980095Y-83713238D01*
X141027714Y-83808476D01*
X141075333Y-83998952D01*
X141075333Y-84141809D01*
X141027714Y-84332285D01*
X140980095Y-84427523D01*
X140884857Y-84522761D01*
X140742000Y-84570380D01*
X140503904Y-84570380D01*
X141932476Y-83570380D02*
X141742000Y-83570380D01*
X141646761Y-83618000D01*
X141599142Y-83665619D01*
X141503904Y-83808476D01*
X141456285Y-83998952D01*
X141456285Y-84379904D01*
X141503904Y-84475142D01*
X141551523Y-84522761D01*
X141646761Y-84570380D01*
X141837238Y-84570380D01*
X141932476Y-84522761D01*
X141980095Y-84475142D01*
X142027714Y-84379904D01*
X142027714Y-84141809D01*
X141980095Y-84046571D01*
X141932476Y-83998952D01*
X141837238Y-83951333D01*
X141646761Y-83951333D01*
X141551523Y-83998952D01*
X141503904Y-84046571D01*
X141456285Y-84141809D01*
%TO.C,D7*%
X137201904Y-84570380D02*
X137201904Y-83570380D01*
X137440000Y-83570380D01*
X137582857Y-83618000D01*
X137678095Y-83713238D01*
X137725714Y-83808476D01*
X137773333Y-83998952D01*
X137773333Y-84141809D01*
X137725714Y-84332285D01*
X137678095Y-84427523D01*
X137582857Y-84522761D01*
X137440000Y-84570380D01*
X137201904Y-84570380D01*
X138106666Y-83570380D02*
X138773333Y-83570380D01*
X138344761Y-84570380D01*
%TO.C,D8*%
X133899904Y-84570380D02*
X133899904Y-83570380D01*
X134138000Y-83570380D01*
X134280857Y-83618000D01*
X134376095Y-83713238D01*
X134423714Y-83808476D01*
X134471333Y-83998952D01*
X134471333Y-84141809D01*
X134423714Y-84332285D01*
X134376095Y-84427523D01*
X134280857Y-84522761D01*
X134138000Y-84570380D01*
X133899904Y-84570380D01*
X135042761Y-83998952D02*
X134947523Y-83951333D01*
X134899904Y-83903714D01*
X134852285Y-83808476D01*
X134852285Y-83760857D01*
X134899904Y-83665619D01*
X134947523Y-83618000D01*
X135042761Y-83570380D01*
X135233238Y-83570380D01*
X135328476Y-83618000D01*
X135376095Y-83665619D01*
X135423714Y-83760857D01*
X135423714Y-83808476D01*
X135376095Y-83903714D01*
X135328476Y-83951333D01*
X135233238Y-83998952D01*
X135042761Y-83998952D01*
X134947523Y-84046571D01*
X134899904Y-84094190D01*
X134852285Y-84189428D01*
X134852285Y-84379904D01*
X134899904Y-84475142D01*
X134947523Y-84522761D01*
X135042761Y-84570380D01*
X135233238Y-84570380D01*
X135328476Y-84522761D01*
X135376095Y-84475142D01*
X135423714Y-84379904D01*
X135423714Y-84189428D01*
X135376095Y-84094190D01*
X135328476Y-84046571D01*
X135233238Y-83998952D01*
%TO.C,-   +*%
X127851428Y-83184857D02*
X127851428Y-82422952D01*
X127851428Y-79661047D02*
X127851428Y-78899142D01*
X128232380Y-79280095D02*
X127470476Y-79280095D01*
%TO.C,- spker +*%
X132677428Y-84803904D02*
X132677428Y-84042000D01*
X133010761Y-82851523D02*
X133058380Y-82756285D01*
X133058380Y-82565809D01*
X133010761Y-82470571D01*
X132915523Y-82422952D01*
X132867904Y-82422952D01*
X132772666Y-82470571D01*
X132725047Y-82565809D01*
X132725047Y-82708666D01*
X132677428Y-82803904D01*
X132582190Y-82851523D01*
X132534571Y-82851523D01*
X132439333Y-82803904D01*
X132391714Y-82708666D01*
X132391714Y-82565809D01*
X132439333Y-82470571D01*
X132391714Y-81994380D02*
X133391714Y-81994380D01*
X132439333Y-81994380D02*
X132391714Y-81899142D01*
X132391714Y-81708666D01*
X132439333Y-81613428D01*
X132486952Y-81565809D01*
X132582190Y-81518190D01*
X132867904Y-81518190D01*
X132963142Y-81565809D01*
X133010761Y-81613428D01*
X133058380Y-81708666D01*
X133058380Y-81899142D01*
X133010761Y-81994380D01*
X133058380Y-81089619D02*
X132058380Y-81089619D01*
X132677428Y-80994380D02*
X133058380Y-80708666D01*
X132391714Y-80708666D02*
X132772666Y-81089619D01*
X133010761Y-79899142D02*
X133058380Y-79994380D01*
X133058380Y-80184857D01*
X133010761Y-80280095D01*
X132915523Y-80327714D01*
X132534571Y-80327714D01*
X132439333Y-80280095D01*
X132391714Y-80184857D01*
X132391714Y-79994380D01*
X132439333Y-79899142D01*
X132534571Y-79851523D01*
X132629809Y-79851523D01*
X132725047Y-80327714D01*
X133058380Y-79422952D02*
X132391714Y-79422952D01*
X132582190Y-79422952D02*
X132486952Y-79375333D01*
X132439333Y-79327714D01*
X132391714Y-79232476D01*
X132391714Y-79137238D01*
X132677428Y-78042000D02*
X132677428Y-77280095D01*
X133058380Y-77661047D02*
X132296476Y-77661047D01*
%TO.C,R1*%
X119739333Y-83526380D02*
X119406000Y-83050190D01*
X119167904Y-83526380D02*
X119167904Y-82526380D01*
X119548857Y-82526380D01*
X119644095Y-82574000D01*
X119691714Y-82621619D01*
X119739333Y-82716857D01*
X119739333Y-82859714D01*
X119691714Y-82954952D01*
X119644095Y-83002571D01*
X119548857Y-83050190D01*
X119167904Y-83050190D01*
X120691714Y-83526380D02*
X120120285Y-83526380D01*
X120406000Y-83526380D02*
X120406000Y-82526380D01*
X120310761Y-82669238D01*
X120215523Y-82764476D01*
X120120285Y-82812095D01*
%TO.C,R10*%
X119263142Y-77684380D02*
X118929809Y-77208190D01*
X118691714Y-77684380D02*
X118691714Y-76684380D01*
X119072666Y-76684380D01*
X119167904Y-76732000D01*
X119215523Y-76779619D01*
X119263142Y-76874857D01*
X119263142Y-77017714D01*
X119215523Y-77112952D01*
X119167904Y-77160571D01*
X119072666Y-77208190D01*
X118691714Y-77208190D01*
X120215523Y-77684380D02*
X119644095Y-77684380D01*
X119929809Y-77684380D02*
X119929809Y-76684380D01*
X119834571Y-76827238D01*
X119739333Y-76922476D01*
X119644095Y-76970095D01*
X120834571Y-76684380D02*
X120929809Y-76684380D01*
X121025047Y-76732000D01*
X121072666Y-76779619D01*
X121120285Y-76874857D01*
X121167904Y-77065333D01*
X121167904Y-77303428D01*
X121120285Y-77493904D01*
X121072666Y-77589142D01*
X121025047Y-77636761D01*
X120929809Y-77684380D01*
X120834571Y-77684380D01*
X120739333Y-77636761D01*
X120691714Y-77589142D01*
X120644095Y-77493904D01*
X120596476Y-77303428D01*
X120596476Y-77065333D01*
X120644095Y-76874857D01*
X120691714Y-76779619D01*
X120739333Y-76732000D01*
X120834571Y-76684380D01*
%TO.C,RV1*%
X154032380Y-64873238D02*
X153556190Y-65206571D01*
X154032380Y-65444666D02*
X153032380Y-65444666D01*
X153032380Y-65063714D01*
X153080000Y-64968476D01*
X153127619Y-64920857D01*
X153222857Y-64873238D01*
X153365714Y-64873238D01*
X153460952Y-64920857D01*
X153508571Y-64968476D01*
X153556190Y-65063714D01*
X153556190Y-65444666D01*
X153032380Y-64587523D02*
X154032380Y-64254190D01*
X153032380Y-63920857D01*
X154032380Y-63063714D02*
X154032380Y-63635142D01*
X154032380Y-63349428D02*
X153032380Y-63349428D01*
X153175238Y-63444666D01*
X153270476Y-63539904D01*
X153318095Y-63635142D01*
%TO.C,RV2*%
X147174380Y-64873238D02*
X146698190Y-65206571D01*
X147174380Y-65444666D02*
X146174380Y-65444666D01*
X146174380Y-65063714D01*
X146222000Y-64968476D01*
X146269619Y-64920857D01*
X146364857Y-64873238D01*
X146507714Y-64873238D01*
X146602952Y-64920857D01*
X146650571Y-64968476D01*
X146698190Y-65063714D01*
X146698190Y-65444666D01*
X146174380Y-64587523D02*
X147174380Y-64254190D01*
X146174380Y-63920857D01*
X146269619Y-63635142D02*
X146222000Y-63587523D01*
X146174380Y-63492285D01*
X146174380Y-63254190D01*
X146222000Y-63158952D01*
X146269619Y-63111333D01*
X146364857Y-63063714D01*
X146460095Y-63063714D01*
X146602952Y-63111333D01*
X147174380Y-63682761D01*
X147174380Y-63063714D01*
%TO.C,RV3*%
X140316380Y-64873238D02*
X139840190Y-65206571D01*
X140316380Y-65444666D02*
X139316380Y-65444666D01*
X139316380Y-65063714D01*
X139364000Y-64968476D01*
X139411619Y-64920857D01*
X139506857Y-64873238D01*
X139649714Y-64873238D01*
X139744952Y-64920857D01*
X139792571Y-64968476D01*
X139840190Y-65063714D01*
X139840190Y-65444666D01*
X139316380Y-64587523D02*
X140316380Y-64254190D01*
X139316380Y-63920857D01*
X139316380Y-63682761D02*
X139316380Y-63063714D01*
X139697333Y-63397047D01*
X139697333Y-63254190D01*
X139744952Y-63158952D01*
X139792571Y-63111333D01*
X139887809Y-63063714D01*
X140125904Y-63063714D01*
X140221142Y-63111333D01*
X140268761Y-63158952D01*
X140316380Y-63254190D01*
X140316380Y-63539904D01*
X140268761Y-63635142D01*
X140221142Y-63682761D01*
%TO.C,RV4*%
X133820380Y-63349238D02*
X133344190Y-63682571D01*
X133820380Y-63920666D02*
X132820380Y-63920666D01*
X132820380Y-63539714D01*
X132868000Y-63444476D01*
X132915619Y-63396857D01*
X133010857Y-63349238D01*
X133153714Y-63349238D01*
X133248952Y-63396857D01*
X133296571Y-63444476D01*
X133344190Y-63539714D01*
X133344190Y-63920666D01*
X132820380Y-63063523D02*
X133820380Y-62730190D01*
X132820380Y-62396857D01*
X133153714Y-61634952D02*
X133820380Y-61634952D01*
X132772761Y-61873047D02*
X133487047Y-62111142D01*
X133487047Y-61492095D01*
%TO.C,RV5*%
X126854380Y-64873238D02*
X126378190Y-65206571D01*
X126854380Y-65444666D02*
X125854380Y-65444666D01*
X125854380Y-65063714D01*
X125902000Y-64968476D01*
X125949619Y-64920857D01*
X126044857Y-64873238D01*
X126187714Y-64873238D01*
X126282952Y-64920857D01*
X126330571Y-64968476D01*
X126378190Y-65063714D01*
X126378190Y-65444666D01*
X125854380Y-64587523D02*
X126854380Y-64254190D01*
X125854380Y-63920857D01*
X125854380Y-63111333D02*
X125854380Y-63587523D01*
X126330571Y-63635142D01*
X126282952Y-63587523D01*
X126235333Y-63492285D01*
X126235333Y-63254190D01*
X126282952Y-63158952D01*
X126330571Y-63111333D01*
X126425809Y-63063714D01*
X126663904Y-63063714D01*
X126759142Y-63111333D01*
X126806761Y-63158952D01*
X126854380Y-63254190D01*
X126854380Y-63492285D01*
X126806761Y-63587523D01*
X126759142Y-63635142D01*
%TO.C,RV6*%
X119850380Y-67413238D02*
X119374190Y-67746571D01*
X119850380Y-67984666D02*
X118850380Y-67984666D01*
X118850380Y-67603714D01*
X118898000Y-67508476D01*
X118945619Y-67460857D01*
X119040857Y-67413238D01*
X119183714Y-67413238D01*
X119278952Y-67460857D01*
X119326571Y-67508476D01*
X119374190Y-67603714D01*
X119374190Y-67984666D01*
X118850380Y-67127523D02*
X119850380Y-66794190D01*
X118850380Y-66460857D01*
X118850380Y-65698952D02*
X118850380Y-65889428D01*
X118898000Y-65984666D01*
X118945619Y-66032285D01*
X119088476Y-66127523D01*
X119278952Y-66175142D01*
X119659904Y-66175142D01*
X119755142Y-66127523D01*
X119802761Y-66079904D01*
X119850380Y-65984666D01*
X119850380Y-65794190D01*
X119802761Y-65698952D01*
X119755142Y-65651333D01*
X119659904Y-65603714D01*
X119421809Y-65603714D01*
X119326571Y-65651333D01*
X119278952Y-65698952D01*
X119231333Y-65794190D01*
X119231333Y-65984666D01*
X119278952Y-66079904D01*
X119326571Y-66127523D01*
X119421809Y-66175142D01*
%TO.C,RV7*%
X113392380Y-64873238D02*
X112916190Y-65206571D01*
X113392380Y-65444666D02*
X112392380Y-65444666D01*
X112392380Y-65063714D01*
X112440000Y-64968476D01*
X112487619Y-64920857D01*
X112582857Y-64873238D01*
X112725714Y-64873238D01*
X112820952Y-64920857D01*
X112868571Y-64968476D01*
X112916190Y-65063714D01*
X112916190Y-65444666D01*
X112392380Y-64587523D02*
X113392380Y-64254190D01*
X112392380Y-63920857D01*
X112392380Y-63682761D02*
X112392380Y-63016095D01*
X113392380Y-63444666D01*
%TO.C,RV8*%
X106788380Y-64873238D02*
X106312190Y-65206571D01*
X106788380Y-65444666D02*
X105788380Y-65444666D01*
X105788380Y-65063714D01*
X105836000Y-64968476D01*
X105883619Y-64920857D01*
X105978857Y-64873238D01*
X106121714Y-64873238D01*
X106216952Y-64920857D01*
X106264571Y-64968476D01*
X106312190Y-65063714D01*
X106312190Y-65444666D01*
X105788380Y-64587523D02*
X106788380Y-64254190D01*
X105788380Y-63920857D01*
X106216952Y-63444666D02*
X106169333Y-63539904D01*
X106121714Y-63587523D01*
X106026476Y-63635142D01*
X105978857Y-63635142D01*
X105883619Y-63587523D01*
X105836000Y-63539904D01*
X105788380Y-63444666D01*
X105788380Y-63254190D01*
X105836000Y-63158952D01*
X105883619Y-63111333D01*
X105978857Y-63063714D01*
X106026476Y-63063714D01*
X106121714Y-63111333D01*
X106169333Y-63158952D01*
X106216952Y-63254190D01*
X106216952Y-63444666D01*
X106264571Y-63539904D01*
X106312190Y-63587523D01*
X106407428Y-63635142D01*
X106597904Y-63635142D01*
X106693142Y-63587523D01*
X106740761Y-63539904D01*
X106788380Y-63444666D01*
X106788380Y-63254190D01*
X106740761Y-63158952D01*
X106693142Y-63111333D01*
X106597904Y-63063714D01*
X106407428Y-63063714D01*
X106312190Y-63111333D01*
X106264571Y-63158952D01*
X106216952Y-63254190D01*
%TO.C,U1*%
X113810095Y-77856380D02*
X113810095Y-78665904D01*
X113857714Y-78761142D01*
X113905333Y-78808761D01*
X114000571Y-78856380D01*
X114191047Y-78856380D01*
X114286285Y-78808761D01*
X114333904Y-78761142D01*
X114381523Y-78665904D01*
X114381523Y-77856380D01*
X115381523Y-78856380D02*
X114810095Y-78856380D01*
X115095809Y-78856380D02*
X115095809Y-77856380D01*
X115000571Y-77999238D01*
X114905333Y-78094476D01*
X114810095Y-78142095D01*
%TO.C,U3*%
X110624380Y-73421904D02*
X111433904Y-73421904D01*
X111529142Y-73374285D01*
X111576761Y-73326666D01*
X111624380Y-73231428D01*
X111624380Y-73040952D01*
X111576761Y-72945714D01*
X111529142Y-72898095D01*
X111433904Y-72850476D01*
X110624380Y-72850476D01*
X110624380Y-72469523D02*
X110624380Y-71850476D01*
X111005333Y-72183809D01*
X111005333Y-72040952D01*
X111052952Y-71945714D01*
X111100571Y-71898095D01*
X111195809Y-71850476D01*
X111433904Y-71850476D01*
X111529142Y-71898095D01*
X111576761Y-71945714D01*
X111624380Y-72040952D01*
X111624380Y-72326666D01*
X111576761Y-72421904D01*
X111529142Y-72469523D01*
%TD*%
M02*
