%FSLAX45Y45*%
G04 Gerber Fmt 4.5, Leading zero omitted, Abs format (unit mm)*
G04 Created by KiCad (PCBNEW 5.1.6+dfsg1-1~bpo10+1) date 2020-09-04 19:15:15*
%MOMM*%
%LPD*%
G01*
G04 APERTURE LIST*
%TA.AperFunction,Profile*%
%ADD10C,0.150000*%
%TD*%
%ADD11C,0.200000*%
%ADD12C,0.300000*%
G04 APERTURE END LIST*
D10*
X10492000Y-8663000D02*
X10492000Y-5996000D01*
X16080000Y-8663000D02*
X10492000Y-8663000D01*
X16080000Y-5996000D02*
X16080000Y-8663000D01*
X10492000Y-5996000D02*
X16080000Y-5996000D01*
D11*
X11081600Y-7093600D02*
X11121600Y-7133600D01*
X11121600Y-7093600D02*
X11081600Y-7133600D01*
X11792800Y-7652400D02*
X11832800Y-7692400D01*
X11832800Y-7652400D02*
X11792800Y-7692400D01*
X11818200Y-7892700D02*
X11858200Y-7932700D01*
X11858200Y-7892700D02*
X11818200Y-7932700D01*
D12*
X10528429Y-9136214D02*
X10528429Y-8836214D01*
X10599857Y-8836214D01*
X10642714Y-8850500D01*
X10671286Y-8879072D01*
X10685571Y-8907643D01*
X10699857Y-8964786D01*
X10699857Y-9007643D01*
X10685571Y-9064786D01*
X10671286Y-9093357D01*
X10642714Y-9121929D01*
X10599857Y-9136214D01*
X10528429Y-9136214D01*
X10828429Y-9136214D02*
X10828429Y-8936214D01*
X10828429Y-8993357D02*
X10842714Y-8964786D01*
X10857000Y-8950500D01*
X10885571Y-8936214D01*
X10914143Y-8936214D01*
X11014143Y-9136214D02*
X11014143Y-8936214D01*
X11014143Y-8836214D02*
X10999857Y-8850500D01*
X11014143Y-8864786D01*
X11028429Y-8850500D01*
X11014143Y-8836214D01*
X11014143Y-8864786D01*
X11199857Y-9136214D02*
X11171286Y-9121929D01*
X11157000Y-9093357D01*
X11157000Y-8836214D01*
X11357000Y-9136214D02*
X11328428Y-9121929D01*
X11314143Y-9093357D01*
X11314143Y-8836214D01*
X11699857Y-9136214D02*
X11699857Y-8836214D01*
X11799857Y-9050500D01*
X11899857Y-8836214D01*
X11899857Y-9136214D01*
X12171286Y-9136214D02*
X12171286Y-8979072D01*
X12157000Y-8950500D01*
X12128428Y-8936214D01*
X12071286Y-8936214D01*
X12042714Y-8950500D01*
X12171286Y-9121929D02*
X12142714Y-9136214D01*
X12071286Y-9136214D01*
X12042714Y-9121929D01*
X12028428Y-9093357D01*
X12028428Y-9064786D01*
X12042714Y-9036214D01*
X12071286Y-9021929D01*
X12142714Y-9021929D01*
X12171286Y-9007643D01*
X12314143Y-8936214D02*
X12314143Y-9236214D01*
X12314143Y-8950500D02*
X12342714Y-8936214D01*
X12399857Y-8936214D01*
X12428428Y-8950500D01*
X12442714Y-8964786D01*
X12457000Y-8993357D01*
X12457000Y-9079072D01*
X12442714Y-9107643D01*
X12428428Y-9121929D01*
X12399857Y-9136214D01*
X12342714Y-9136214D01*
X12314143Y-9121929D01*
X12585571Y-9107643D02*
X12599857Y-9121929D01*
X12585571Y-9136214D01*
X12571286Y-9121929D01*
X12585571Y-9107643D01*
X12585571Y-9136214D01*
X12585571Y-8950500D02*
X12599857Y-8964786D01*
X12585571Y-8979072D01*
X12571286Y-8964786D01*
X12585571Y-8950500D01*
X12585571Y-8979072D01*
X10202000Y-9610500D02*
X10242000Y-9650500D01*
X10242000Y-9610500D02*
X10202000Y-9650500D01*
X10585571Y-9466214D02*
X10614143Y-9466214D01*
X10642714Y-9480500D01*
X10657000Y-9494786D01*
X10671286Y-9523357D01*
X10685571Y-9580500D01*
X10685571Y-9651929D01*
X10671286Y-9709072D01*
X10657000Y-9737643D01*
X10642714Y-9751929D01*
X10614143Y-9766214D01*
X10585571Y-9766214D01*
X10557000Y-9751929D01*
X10542714Y-9737643D01*
X10528429Y-9709072D01*
X10514143Y-9651929D01*
X10514143Y-9580500D01*
X10528429Y-9523357D01*
X10542714Y-9494786D01*
X10557000Y-9480500D01*
X10585571Y-9466214D01*
X10814143Y-9737643D02*
X10828429Y-9751929D01*
X10814143Y-9766214D01*
X10799857Y-9751929D01*
X10814143Y-9737643D01*
X10814143Y-9766214D01*
X11085571Y-9566214D02*
X11085571Y-9766214D01*
X11014143Y-9451929D02*
X10942714Y-9666214D01*
X11128429Y-9666214D01*
X11299857Y-9466214D02*
X11328428Y-9466214D01*
X11357000Y-9480500D01*
X11371286Y-9494786D01*
X11385571Y-9523357D01*
X11399857Y-9580500D01*
X11399857Y-9651929D01*
X11385571Y-9709072D01*
X11371286Y-9737643D01*
X11357000Y-9751929D01*
X11328428Y-9766214D01*
X11299857Y-9766214D01*
X11271286Y-9751929D01*
X11257000Y-9737643D01*
X11242714Y-9709072D01*
X11228428Y-9651929D01*
X11228428Y-9580500D01*
X11242714Y-9523357D01*
X11257000Y-9494786D01*
X11271286Y-9480500D01*
X11299857Y-9466214D01*
X11528428Y-9766214D02*
X11528428Y-9566214D01*
X11528428Y-9594786D02*
X11542714Y-9580500D01*
X11571286Y-9566214D01*
X11614143Y-9566214D01*
X11642714Y-9580500D01*
X11657000Y-9609072D01*
X11657000Y-9766214D01*
X11657000Y-9609072D02*
X11671286Y-9580500D01*
X11699857Y-9566214D01*
X11742714Y-9566214D01*
X11771286Y-9580500D01*
X11785571Y-9609072D01*
X11785571Y-9766214D01*
X11928428Y-9766214D02*
X11928428Y-9566214D01*
X11928428Y-9594786D02*
X11942714Y-9580500D01*
X11971286Y-9566214D01*
X12014143Y-9566214D01*
X12042714Y-9580500D01*
X12057000Y-9609072D01*
X12057000Y-9766214D01*
X12057000Y-9609072D02*
X12071286Y-9580500D01*
X12099857Y-9566214D01*
X12142714Y-9566214D01*
X12171286Y-9580500D01*
X12185571Y-9609072D01*
X12185571Y-9766214D01*
X12771286Y-9451929D02*
X12514143Y-9837643D01*
X13157000Y-9466214D02*
X13185571Y-9466214D01*
X13214143Y-9480500D01*
X13228428Y-9494786D01*
X13242714Y-9523357D01*
X13257000Y-9580500D01*
X13257000Y-9651929D01*
X13242714Y-9709072D01*
X13228428Y-9737643D01*
X13214143Y-9751929D01*
X13185571Y-9766214D01*
X13157000Y-9766214D01*
X13128428Y-9751929D01*
X13114143Y-9737643D01*
X13099857Y-9709072D01*
X13085571Y-9651929D01*
X13085571Y-9580500D01*
X13099857Y-9523357D01*
X13114143Y-9494786D01*
X13128428Y-9480500D01*
X13157000Y-9466214D01*
X13385571Y-9737643D02*
X13399857Y-9751929D01*
X13385571Y-9766214D01*
X13371286Y-9751929D01*
X13385571Y-9737643D01*
X13385571Y-9766214D01*
X13585571Y-9466214D02*
X13614143Y-9466214D01*
X13642714Y-9480500D01*
X13657000Y-9494786D01*
X13671286Y-9523357D01*
X13685571Y-9580500D01*
X13685571Y-9651929D01*
X13671286Y-9709072D01*
X13657000Y-9737643D01*
X13642714Y-9751929D01*
X13614143Y-9766214D01*
X13585571Y-9766214D01*
X13557000Y-9751929D01*
X13542714Y-9737643D01*
X13528428Y-9709072D01*
X13514143Y-9651929D01*
X13514143Y-9580500D01*
X13528428Y-9523357D01*
X13542714Y-9494786D01*
X13557000Y-9480500D01*
X13585571Y-9466214D01*
X13971286Y-9766214D02*
X13799857Y-9766214D01*
X13885571Y-9766214D02*
X13885571Y-9466214D01*
X13857000Y-9509072D01*
X13828428Y-9537643D01*
X13799857Y-9551929D01*
X14228428Y-9466214D02*
X14171286Y-9466214D01*
X14142714Y-9480500D01*
X14128428Y-9494786D01*
X14099857Y-9537643D01*
X14085571Y-9594786D01*
X14085571Y-9709072D01*
X14099857Y-9737643D01*
X14114143Y-9751929D01*
X14142714Y-9766214D01*
X14199857Y-9766214D01*
X14228428Y-9751929D01*
X14242714Y-9737643D01*
X14257000Y-9709072D01*
X14257000Y-9637643D01*
X14242714Y-9609072D01*
X14228428Y-9594786D01*
X14199857Y-9580500D01*
X14142714Y-9580500D01*
X14114143Y-9594786D01*
X14099857Y-9609072D01*
X14085571Y-9637643D01*
X14371286Y-9466214D02*
X14371286Y-9523357D01*
X14485571Y-9466214D02*
X14485571Y-9523357D01*
X14928428Y-9880500D02*
X14914143Y-9866214D01*
X14885571Y-9823357D01*
X14871286Y-9794786D01*
X14857000Y-9751929D01*
X14842714Y-9680500D01*
X14842714Y-9623357D01*
X14857000Y-9551929D01*
X14871286Y-9509072D01*
X14885571Y-9480500D01*
X14914143Y-9437643D01*
X14928428Y-9423357D01*
X15014143Y-9466214D02*
X15199857Y-9466214D01*
X15099857Y-9580500D01*
X15142714Y-9580500D01*
X15171286Y-9594786D01*
X15185571Y-9609072D01*
X15199857Y-9637643D01*
X15199857Y-9709072D01*
X15185571Y-9737643D01*
X15171286Y-9751929D01*
X15142714Y-9766214D01*
X15057000Y-9766214D01*
X15028428Y-9751929D01*
X15014143Y-9737643D01*
X15557000Y-9766214D02*
X15557000Y-9466214D01*
X15685571Y-9766214D02*
X15685571Y-9609072D01*
X15671286Y-9580500D01*
X15642714Y-9566214D01*
X15599857Y-9566214D01*
X15571286Y-9580500D01*
X15557000Y-9594786D01*
X15871286Y-9766214D02*
X15842714Y-9751929D01*
X15828428Y-9737643D01*
X15814143Y-9709072D01*
X15814143Y-9623357D01*
X15828428Y-9594786D01*
X15842714Y-9580500D01*
X15871286Y-9566214D01*
X15914143Y-9566214D01*
X15942714Y-9580500D01*
X15957000Y-9594786D01*
X15971286Y-9623357D01*
X15971286Y-9709072D01*
X15957000Y-9737643D01*
X15942714Y-9751929D01*
X15914143Y-9766214D01*
X15871286Y-9766214D01*
X16142714Y-9766214D02*
X16114143Y-9751929D01*
X16099857Y-9723357D01*
X16099857Y-9466214D01*
X16371286Y-9751929D02*
X16342714Y-9766214D01*
X16285571Y-9766214D01*
X16257000Y-9751929D01*
X16242714Y-9723357D01*
X16242714Y-9609072D01*
X16257000Y-9580500D01*
X16285571Y-9566214D01*
X16342714Y-9566214D01*
X16371286Y-9580500D01*
X16385571Y-9609072D01*
X16385571Y-9637643D01*
X16242714Y-9666214D01*
X16499857Y-9751929D02*
X16528428Y-9766214D01*
X16585571Y-9766214D01*
X16614143Y-9751929D01*
X16628428Y-9723357D01*
X16628428Y-9709072D01*
X16614143Y-9680500D01*
X16585571Y-9666214D01*
X16542714Y-9666214D01*
X16514143Y-9651929D01*
X16499857Y-9623357D01*
X16499857Y-9609072D01*
X16514143Y-9580500D01*
X16542714Y-9566214D01*
X16585571Y-9566214D01*
X16614143Y-9580500D01*
X16728428Y-9880500D02*
X16742714Y-9866214D01*
X16771286Y-9823357D01*
X16785571Y-9794786D01*
X16799857Y-9751929D01*
X16814143Y-9680500D01*
X16814143Y-9623357D01*
X16799857Y-9551929D01*
X16785571Y-9509072D01*
X16771286Y-9480500D01*
X16742714Y-9437643D01*
X16728428Y-9423357D01*
M02*
