EESchema Schematic File Version 4
EELAYER 30 0
EELAYER END
$Descr A4 11693 8268
encoding utf-8
Sheet 1 1
Title "OpenHardware Soundbox"
Date "2020-09-04"
Rev "0.3"
Comp "OpenHardware Soundbox"
Comment1 ""
Comment2 ""
Comment3 ""
Comment4 ""
$EndDescr
$Comp
L power1:PWR_FLAG #FLG02
U 1 1 5B7E8F2C
P 10300 1400
F 0 "#FLG02" H 10300 1475 50  0001 C CNN
F 1 "PWR_FLAG" H 10300 1550 50  0000 C CNN
F 2 "" H 10300 1400 50  0001 C CNN
F 3 "" H 10300 1400 50  0001 C CNN
	1    10300 1400
	1    0    0    -1  
$EndComp
$Comp
L power1:PWR_FLAG #FLG01
U 1 1 5B7E8F3E
P 9700 1400
F 0 "#FLG01" H 9700 1475 50  0001 C CNN
F 1 "PWR_FLAG" H 9700 1550 50  0000 C CNN
F 2 "" H 9700 1400 50  0001 C CNN
F 3 "" H 9700 1400 50  0001 C CNN
	1    9700 1400
	1    0    0    -1  
$EndComp
$Comp
L power1:VCC #PWR023
U 1 1 5B7E8F4B
P 9250 1450
F 0 "#PWR023" H 9250 1300 50  0001 C CNN
F 1 "VCC" H 9250 1600 50  0000 C CNN
F 2 "" H 9250 1450 50  0001 C CNN
F 3 "" H 9250 1450 50  0001 C CNN
	1    9250 1450
	1    0    0    -1  
$EndComp
$Comp
L power1:GND #PWR027
U 1 1 5B7E8F5F
P 10700 1450
F 0 "#PWR027" H 10700 1200 50  0001 C CNN
F 1 "GND" H 10700 1300 50  0000 C CNN
F 2 "" H 10700 1450 50  0001 C CNN
F 3 "" H 10700 1450 50  0001 C CNN
	1    10700 1450
	1    0    0    -1  
$EndComp
$Comp
L HWSB-rescue:CONN_01X02 J1
U 1 1 5B7E8F73
P 10000 1950
F 0 "J1" H 10000 2100 50  0000 C CNN
F 1 "power" V 10100 1950 50  0000 C CNN
F 2 "Connector_PinHeader_2.00mm:PinHeader_1x02_P2.00mm_Vertical" H 10000 1950 50  0001 C CNN
F 3 "" H 10000 1950 50  0001 C CNN
	1    10000 1950
	0    1    1    0   
$EndComp
$Comp
L HWSB-rescue:NE555 U1
U 1 1 5B7E8FFD
P 1900 6150
F 0 "U1" H 1500 6500 50  0000 L CNN
F 1 "NE555" H 1500 5800 50  0000 L CNN
F 2 "Package_SO:SOIC-8_3.9x4.9mm_P1.27mm" H 1900 6150 50  0001 C CNN
F 3 "" H 1900 6150 50  0001 C CNN
	1    1900 6150
	1    0    0    -1  
$EndComp
$Comp
L HWSB-rescue:NE555 U3
U 1 1 5B7E906C
P 9400 4500
F 0 "U3" H 9000 4850 50  0000 L CNN
F 1 "NE555" H 9000 4150 50  0000 L CNN
F 2 "Package_SO:SOIC-8_3.9x4.9mm_P1.27mm" H 9400 4500 50  0001 C CNN
F 3 "" H 9400 4500 50  0001 C CNN
	1    9400 4500
	1    0    0    -1  
$EndComp
$Comp
L HWSB-rescue:4017 U2
U 1 1 5B7E91AB
P 2200 2750
F 0 "U2" H 2100 2600 50  0000 C CNN
F 1 "4017" H 2100 2450 50  0000 C CNN
F 2 "Package_SO:SOIC-16_3.9x9.9mm_P1.27mm" H 2200 2750 60  0001 C CNN
F 3 "" H 2200 2750 60  0001 C CNN
	1    2200 2750
	1    0    0    -1  
$EndComp
$Comp
L power1:VCC #PWR02
U 1 1 5B7E9232
P 1900 5600
F 0 "#PWR02" H 1900 5450 50  0001 C CNN
F 1 "VCC" H 1900 5750 50  0000 C CNN
F 2 "" H 1900 5600 50  0001 C CNN
F 3 "" H 1900 5600 50  0001 C CNN
	1    1900 5600
	1    0    0    -1  
$EndComp
$Comp
L power1:VCC #PWR01
U 1 1 5B7E9250
P 1000 6350
F 0 "#PWR01" H 1000 6200 50  0001 C CNN
F 1 "VCC" H 1000 6500 50  0000 C CNN
F 2 "" H 1000 6350 50  0001 C CNN
F 3 "" H 1000 6350 50  0001 C CNN
	1    1000 6350
	1    0    0    -1  
$EndComp
NoConn ~ 1400 6150
NoConn ~ 2400 6150
$Comp
L HWSB-rescue:CP C1
U 1 1 5B7E9296
P 2650 6500
F 0 "C1" H 2675 6600 50  0000 L CNN
F 1 "10µ" H 2675 6400 50  0000 L CNN
F 2 "Capacitor_SMD:CP_Elec_4x3" H 2688 6350 50  0001 C CNN
F 3 "" H 2650 6500 50  0001 C CNN
	1    2650 6500
	1    0    0    -1  
$EndComp
$Comp
L power1:GND #PWR03
U 1 1 5B7E933B
P 1900 6700
F 0 "#PWR03" H 1900 6450 50  0001 C CNN
F 1 "GND" H 1900 6550 50  0000 C CNN
F 2 "" H 1900 6700 50  0001 C CNN
F 3 "" H 1900 6700 50  0001 C CNN
	1    1900 6700
	1    0    0    -1  
$EndComp
$Comp
L HWSB-rescue:R R1
U 1 1 5B7E9371
P 2800 6150
F 0 "R1" V 2880 6150 50  0000 C CNN
F 1 "33K" V 2800 6150 50  0000 C CNN
F 2 "Resistor_SMD:R_0805_2012Metric" V 2730 6150 50  0001 C CNN
F 3 "" H 2800 6150 50  0001 C CNN
	1    2800 6150
	0    1    1    0   
$EndComp
$Comp
L power1:VCC #PWR04
U 1 1 5B7E9743
P 2200 1950
F 0 "#PWR04" H 2200 1800 50  0001 C CNN
F 1 "VCC" H 2200 2100 50  0000 C CNN
F 2 "" H 2200 1950 50  0001 C CNN
F 3 "" H 2200 1950 50  0001 C CNN
	1    2200 1950
	1    0    0    -1  
$EndComp
$Comp
L power1:GND #PWR05
U 1 1 5B7E97FA
P 2200 3550
F 0 "#PWR05" H 2200 3300 50  0001 C CNN
F 1 "GND" H 2200 3400 50  0000 C CNN
F 2 "" H 2200 3550 50  0001 C CNN
F 3 "" H 2200 3550 50  0001 C CNN
	1    2200 3550
	1    0    0    -1  
$EndComp
NoConn ~ 2850 2500
NoConn ~ 2850 2800
NoConn ~ 2850 3300
$Comp
L power1:VCC #PWR024
U 1 1 5B7EC759
P 9400 3900
F 0 "#PWR024" H 9400 3750 50  0001 C CNN
F 1 "VCC" H 9400 4050 50  0000 C CNN
F 2 "" H 9400 3900 50  0001 C CNN
F 3 "" H 9400 3900 50  0001 C CNN
	1    9400 3900
	1    0    0    -1  
$EndComp
$Comp
L power1:GND #PWR025
U 1 1 5B7EC799
P 9400 5150
F 0 "#PWR025" H 9400 4900 50  0001 C CNN
F 1 "GND" H 9400 5000 50  0000 C CNN
F 2 "" H 9400 5150 50  0001 C CNN
F 3 "" H 9400 5150 50  0001 C CNN
	1    9400 5150
	1    0    0    -1  
$EndComp
$Comp
L HWSB-rescue:C C3
U 1 1 5B7EC93F
P 10500 4850
F 0 "C3" H 10525 4950 50  0000 L CNN
F 1 "10n" H 10525 4750 50  0000 L CNN
F 2 "Capacitor_SMD:CP_Elec_4x3" H 10538 4700 50  0001 C CNN
F 3 "" H 10500 4850 50  0001 C CNN
	1    10500 4850
	1    0    0    -1  
$EndComp
$Comp
L HWSB-rescue:R R10
U 1 1 5B7ECB3E
P 10200 4450
F 0 "R10" V 10280 4450 50  0000 C CNN
F 1 "33K" V 10200 4450 50  0000 C CNN
F 2 "Connector_JST:JST_EH_B2B-EH-A_1x02_P2.50mm_Vertical" V 10130 4450 50  0001 C CNN
F 3 "" H 10200 4450 50  0001 C CNN
	1    10200 4450
	-1   0    0    1   
$EndComp
$Comp
L HWSB-rescue:CP C2
U 1 1 5B7ECD3C
P 9900 3750
F 0 "C2" H 9925 3850 50  0000 L CNN
F 1 "10µ" H 9925 3650 50  0000 L CNN
F 2 "Capacitor_SMD:CP_Elec_4x3" H 9938 3600 50  0001 C CNN
F 3 "" H 9900 3750 50  0001 C CNN
	1    9900 3750
	-1   0    0    1   
$EndComp
$Comp
L HWSB-rescue:Speaker LS1
U 1 1 5B7ECE00
P 9800 3150
F 0 "LS1" H 9850 3375 50  0000 R CNN
F 1 "Speaker" H 9850 3300 50  0000 R CNN
F 2 "Connector_PinHeader_2.00mm:PinHeader_1x02_P2.00mm_Vertical" H 9800 2950 50  0001 C CNN
F 3 "" H 9790 3100 50  0001 C CNN
	1    9800 3150
	0    -1   -1   0   
$EndComp
NoConn ~ 9900 4500
$Comp
L power1:GND #PWR026
U 1 1 5B7ED01D
P 9600 3650
F 0 "#PWR026" H 9600 3400 50  0001 C CNN
F 1 "GND" H 9600 3500 50  0000 C CNN
F 2 "" H 9600 3650 50  0001 C CNN
F 3 "" H 9600 3650 50  0001 C CNN
	1    9600 3650
	1    0    0    -1  
$EndComp
Text Notes 1900 7400 0    60   ~ 0
timebase\n
Text Notes 2200 4050 0    60   ~ 0
decade\n
Text Notes 9400 5800 0    60   ~ 0
mix out speaker\n
Text Notes 9750 1000 0    60   ~ 0
power connector\n
$Comp
L HWSB-rescue:LED D1
U 1 1 5B7F0F28
P 5950 950
F 0 "D1" H 5950 1050 50  0000 C CNN
F 1 "RedLED" H 5950 850 50  0000 C CNN
F 2 "Connector_PinHeader_2.00mm:PinHeader_1x02_P2.00mm_Vertical" H 5950 950 50  0001 C CNN
F 3 "" H 5950 950 50  0001 C CNN
	1    5950 950 
	-1   0    0    1   
$EndComp
$Comp
L HWSB-rescue:R R2
U 1 1 5B7F20BB
P 5050 950
F 0 "R2" V 5130 950 50  0000 C CNN
F 1 "100" V 5050 950 50  0000 C CNN
F 2 "Resistor_SMD:R_0805_2012Metric" V 4980 950 50  0001 C CNN
F 3 "" H 5050 950 50  0001 C CNN
	1    5050 950 
	0    1    1    0   
$EndComp
$Comp
L HWSB-rescue:Q_NPN_BCE Q1
U 1 1 5B7F3151
P 5500 1050
F 0 "Q1" H 5700 1100 50  0000 L CNN
F 1 "bc547" H 5700 1000 50  0000 L CNN
F 2 "Package_TO_SOT_SMD:SOT-23" H 5700 1150 50  0001 C CNN
F 3 "" H 5500 1050 50  0001 C CNN
	1    5500 1050
	0    -1   -1   0   
$EndComp
$Comp
L power1:GND #PWR014
U 1 1 5B7F3498
P 6200 1150
F 0 "#PWR014" H 6200 900 50  0001 C CNN
F 1 "GND" H 6200 1000 50  0000 C CNN
F 2 "" H 6200 1150 50  0001 C CNN
F 3 "" H 6200 1150 50  0001 C CNN
	1    6200 1150
	1    0    0    -1  
$EndComp
$Comp
L power1:VCC #PWR06
U 1 1 5B7F34C6
P 4800 800
F 0 "#PWR06" H 4800 650 50  0001 C CNN
F 1 "VCC" H 4800 950 50  0000 C CNN
F 2 "" H 4800 800 50  0001 C CNN
F 3 "" H 4800 800 50  0001 C CNN
	1    4800 800 
	1    0    0    -1  
$EndComp
$Comp
L HWSB-rescue:LED D2
U 1 1 5B7F4B97
P 5950 1650
F 0 "D2" H 5950 1750 50  0000 C CNN
F 1 "RedLED" H 5950 1550 50  0000 C CNN
F 2 "Connector_PinHeader_2.00mm:PinHeader_1x02_P2.00mm_Vertical" H 5950 1650 50  0001 C CNN
F 3 "" H 5950 1650 50  0001 C CNN
	1    5950 1650
	-1   0    0    1   
$EndComp
$Comp
L HWSB-rescue:R R3
U 1 1 5B7F4B9D
P 5050 1650
F 0 "R3" V 5130 1650 50  0000 C CNN
F 1 "100" V 5050 1650 50  0000 C CNN
F 2 "Resistor_SMD:R_0805_2012Metric" V 4980 1650 50  0001 C CNN
F 3 "" H 5050 1650 50  0001 C CNN
	1    5050 1650
	0    1    1    0   
$EndComp
$Comp
L HWSB-rescue:Q_NPN_BCE Q2
U 1 1 5B7F4BA3
P 5500 1750
F 0 "Q2" H 5700 1800 50  0000 L CNN
F 1 "bc547" H 5700 1700 50  0000 L CNN
F 2 "Package_TO_SOT_SMD:SOT-23" H 5700 1850 50  0001 C CNN
F 3 "" H 5500 1750 50  0001 C CNN
	1    5500 1750
	0    -1   -1   0   
$EndComp
$Comp
L power1:GND #PWR015
U 1 1 5B7F4BA9
P 6200 1850
F 0 "#PWR015" H 6200 1600 50  0001 C CNN
F 1 "GND" H 6200 1700 50  0000 C CNN
F 2 "" H 6200 1850 50  0001 C CNN
F 3 "" H 6200 1850 50  0001 C CNN
	1    6200 1850
	1    0    0    -1  
$EndComp
$Comp
L power1:VCC #PWR07
U 1 1 5B7F4BAF
P 4800 1500
F 0 "#PWR07" H 4800 1350 50  0001 C CNN
F 1 "VCC" H 4800 1650 50  0000 C CNN
F 2 "" H 4800 1500 50  0001 C CNN
F 3 "" H 4800 1500 50  0001 C CNN
	1    4800 1500
	1    0    0    -1  
$EndComp
$Comp
L HWSB-rescue:LED D3
U 1 1 5B7F4D45
P 5950 2350
F 0 "D3" H 5950 2450 50  0000 C CNN
F 1 "RedLED" H 5950 2250 50  0000 C CNN
F 2 "Connector_PinHeader_2.00mm:PinHeader_1x02_P2.00mm_Vertical" H 5950 2350 50  0001 C CNN
F 3 "" H 5950 2350 50  0001 C CNN
	1    5950 2350
	-1   0    0    1   
$EndComp
$Comp
L HWSB-rescue:R R4
U 1 1 5B7F4D4B
P 5050 2350
F 0 "R4" V 5130 2350 50  0000 C CNN
F 1 "100" V 5050 2350 50  0000 C CNN
F 2 "Resistor_SMD:R_0805_2012Metric" V 4980 2350 50  0001 C CNN
F 3 "" H 5050 2350 50  0001 C CNN
	1    5050 2350
	0    1    1    0   
$EndComp
$Comp
L HWSB-rescue:Q_NPN_BCE Q3
U 1 1 5B7F4D51
P 5500 2450
F 0 "Q3" H 5700 2500 50  0000 L CNN
F 1 "bc547" H 5700 2400 50  0000 L CNN
F 2 "Package_TO_SOT_SMD:SOT-23" H 5700 2550 50  0001 C CNN
F 3 "" H 5500 2450 50  0001 C CNN
	1    5500 2450
	0    -1   -1   0   
$EndComp
$Comp
L power1:GND #PWR016
U 1 1 5B7F4D57
P 6200 2550
F 0 "#PWR016" H 6200 2300 50  0001 C CNN
F 1 "GND" H 6200 2400 50  0000 C CNN
F 2 "" H 6200 2550 50  0001 C CNN
F 3 "" H 6200 2550 50  0001 C CNN
	1    6200 2550
	1    0    0    -1  
$EndComp
$Comp
L power1:VCC #PWR08
U 1 1 5B7F4D5D
P 4800 2200
F 0 "#PWR08" H 4800 2050 50  0001 C CNN
F 1 "VCC" H 4800 2350 50  0000 C CNN
F 2 "" H 4800 2200 50  0001 C CNN
F 3 "" H 4800 2200 50  0001 C CNN
	1    4800 2200
	1    0    0    -1  
$EndComp
$Comp
L HWSB-rescue:LED D4
U 1 1 5B7F5110
P 5950 3050
F 0 "D4" H 5950 3150 50  0000 C CNN
F 1 "RedLED" H 5950 2950 50  0000 C CNN
F 2 "Connector_PinHeader_2.00mm:PinHeader_1x02_P2.00mm_Vertical" H 5950 3050 50  0001 C CNN
F 3 "" H 5950 3050 50  0001 C CNN
	1    5950 3050
	-1   0    0    1   
$EndComp
$Comp
L HWSB-rescue:R R5
U 1 1 5B7F5116
P 5050 3050
F 0 "R5" V 5130 3050 50  0000 C CNN
F 1 "100" V 5050 3050 50  0000 C CNN
F 2 "Resistor_SMD:R_0805_2012Metric" V 4980 3050 50  0001 C CNN
F 3 "" H 5050 3050 50  0001 C CNN
	1    5050 3050
	0    1    1    0   
$EndComp
$Comp
L HWSB-rescue:Q_NPN_BCE Q4
U 1 1 5B7F511C
P 5500 3150
F 0 "Q4" H 5700 3200 50  0000 L CNN
F 1 "bc547" H 5700 3100 50  0000 L CNN
F 2 "Package_TO_SOT_SMD:SOT-23" H 5700 3250 50  0001 C CNN
F 3 "" H 5500 3150 50  0001 C CNN
	1    5500 3150
	0    -1   -1   0   
$EndComp
$Comp
L power1:GND #PWR017
U 1 1 5B7F5122
P 6200 3250
F 0 "#PWR017" H 6200 3000 50  0001 C CNN
F 1 "GND" H 6200 3100 50  0000 C CNN
F 2 "" H 6200 3250 50  0001 C CNN
F 3 "" H 6200 3250 50  0001 C CNN
	1    6200 3250
	1    0    0    -1  
$EndComp
$Comp
L power1:VCC #PWR09
U 1 1 5B7F5128
P 4800 2900
F 0 "#PWR09" H 4800 2750 50  0001 C CNN
F 1 "VCC" H 4800 3050 50  0000 C CNN
F 2 "" H 4800 2900 50  0001 C CNN
F 3 "" H 4800 2900 50  0001 C CNN
	1    4800 2900
	1    0    0    -1  
$EndComp
$Comp
L HWSB-rescue:LED D5
U 1 1 5B7F5A00
P 5950 3800
F 0 "D5" H 5950 3900 50  0000 C CNN
F 1 "RedLED" H 5950 3700 50  0000 C CNN
F 2 "Connector_PinHeader_2.00mm:PinHeader_1x02_P2.00mm_Vertical" H 5950 3800 50  0001 C CNN
F 3 "" H 5950 3800 50  0001 C CNN
	1    5950 3800
	-1   0    0    1   
$EndComp
$Comp
L HWSB-rescue:R R6
U 1 1 5B7F5A06
P 5050 3800
F 0 "R6" V 5130 3800 50  0000 C CNN
F 1 "100" V 5050 3800 50  0000 C CNN
F 2 "Resistor_SMD:R_0805_2012Metric" V 4980 3800 50  0001 C CNN
F 3 "" H 5050 3800 50  0001 C CNN
	1    5050 3800
	0    1    1    0   
$EndComp
$Comp
L HWSB-rescue:Q_NPN_BCE Q5
U 1 1 5B7F5A0C
P 5500 3900
F 0 "Q5" H 5700 3950 50  0000 L CNN
F 1 "bc547" H 5700 3850 50  0000 L CNN
F 2 "Package_TO_SOT_SMD:SOT-23" H 5700 4000 50  0001 C CNN
F 3 "" H 5500 3900 50  0001 C CNN
	1    5500 3900
	0    -1   -1   0   
$EndComp
$Comp
L power1:GND #PWR018
U 1 1 5B7F5A12
P 6200 4000
F 0 "#PWR018" H 6200 3750 50  0001 C CNN
F 1 "GND" H 6200 3850 50  0000 C CNN
F 2 "" H 6200 4000 50  0001 C CNN
F 3 "" H 6200 4000 50  0001 C CNN
	1    6200 4000
	1    0    0    -1  
$EndComp
$Comp
L power1:VCC #PWR010
U 1 1 5B7F5A18
P 4800 3650
F 0 "#PWR010" H 4800 3500 50  0001 C CNN
F 1 "VCC" H 4800 3800 50  0000 C CNN
F 2 "" H 4800 3650 50  0001 C CNN
F 3 "" H 4800 3650 50  0001 C CNN
	1    4800 3650
	1    0    0    -1  
$EndComp
$Comp
L HWSB-rescue:LED D6
U 1 1 5B7F5A24
P 5950 4500
F 0 "D6" H 5950 4600 50  0000 C CNN
F 1 "RedLED" H 5950 4400 50  0000 C CNN
F 2 "Connector_PinHeader_2.00mm:PinHeader_1x02_P2.00mm_Vertical" H 5950 4500 50  0001 C CNN
F 3 "" H 5950 4500 50  0001 C CNN
	1    5950 4500
	-1   0    0    1   
$EndComp
$Comp
L HWSB-rescue:R R7
U 1 1 5B7F5A2A
P 5050 4500
F 0 "R7" V 5130 4500 50  0000 C CNN
F 1 "100" V 5050 4500 50  0000 C CNN
F 2 "Resistor_SMD:R_0805_2012Metric" V 4980 4500 50  0001 C CNN
F 3 "" H 5050 4500 50  0001 C CNN
	1    5050 4500
	0    1    1    0   
$EndComp
$Comp
L HWSB-rescue:Q_NPN_BCE Q6
U 1 1 5B7F5A30
P 5500 4600
F 0 "Q6" H 5700 4650 50  0000 L CNN
F 1 "bc547" H 5700 4550 50  0000 L CNN
F 2 "Package_TO_SOT_SMD:SOT-23" H 5700 4700 50  0001 C CNN
F 3 "" H 5500 4600 50  0001 C CNN
	1    5500 4600
	0    -1   -1   0   
$EndComp
$Comp
L power1:GND #PWR019
U 1 1 5B7F5A36
P 6200 4700
F 0 "#PWR019" H 6200 4450 50  0001 C CNN
F 1 "GND" H 6200 4550 50  0000 C CNN
F 2 "" H 6200 4700 50  0001 C CNN
F 3 "" H 6200 4700 50  0001 C CNN
	1    6200 4700
	1    0    0    -1  
$EndComp
$Comp
L power1:VCC #PWR011
U 1 1 5B7F5A3C
P 4800 4350
F 0 "#PWR011" H 4800 4200 50  0001 C CNN
F 1 "VCC" H 4800 4500 50  0000 C CNN
F 2 "" H 4800 4350 50  0001 C CNN
F 3 "" H 4800 4350 50  0001 C CNN
	1    4800 4350
	1    0    0    -1  
$EndComp
$Comp
L HWSB-rescue:LED D7
U 1 1 5B7F5A48
P 5950 5200
F 0 "D7" H 5950 5300 50  0000 C CNN
F 1 "RedLED" H 5950 5100 50  0000 C CNN
F 2 "Connector_PinHeader_2.00mm:PinHeader_1x02_P2.00mm_Vertical" H 5950 5200 50  0001 C CNN
F 3 "" H 5950 5200 50  0001 C CNN
	1    5950 5200
	-1   0    0    1   
$EndComp
$Comp
L HWSB-rescue:R R8
U 1 1 5B7F5A4E
P 5050 5200
F 0 "R8" V 5130 5200 50  0000 C CNN
F 1 "100" V 5050 5200 50  0000 C CNN
F 2 "Resistor_SMD:R_0805_2012Metric" V 4980 5200 50  0001 C CNN
F 3 "" H 5050 5200 50  0001 C CNN
	1    5050 5200
	0    1    1    0   
$EndComp
$Comp
L HWSB-rescue:Q_NPN_BCE Q7
U 1 1 5B7F5A54
P 5500 5300
F 0 "Q7" H 5700 5350 50  0000 L CNN
F 1 "bc547" H 5700 5250 50  0000 L CNN
F 2 "Package_TO_SOT_SMD:SOT-23" H 5700 5400 50  0001 C CNN
F 3 "" H 5500 5300 50  0001 C CNN
	1    5500 5300
	0    -1   -1   0   
$EndComp
$Comp
L power1:GND #PWR020
U 1 1 5B7F5A5A
P 6200 5400
F 0 "#PWR020" H 6200 5150 50  0001 C CNN
F 1 "GND" H 6200 5250 50  0000 C CNN
F 2 "" H 6200 5400 50  0001 C CNN
F 3 "" H 6200 5400 50  0001 C CNN
	1    6200 5400
	1    0    0    -1  
$EndComp
$Comp
L power1:VCC #PWR012
U 1 1 5B7F5A60
P 4800 5050
F 0 "#PWR012" H 4800 4900 50  0001 C CNN
F 1 "VCC" H 4800 5200 50  0000 C CNN
F 2 "" H 4800 5050 50  0001 C CNN
F 3 "" H 4800 5050 50  0001 C CNN
	1    4800 5050
	1    0    0    -1  
$EndComp
$Comp
L HWSB-rescue:LED D8
U 1 1 5B7F5A6C
P 5950 5900
F 0 "D8" H 5950 6000 50  0000 C CNN
F 1 "RedLED" H 5950 5800 50  0000 C CNN
F 2 "Connector_PinHeader_2.00mm:PinHeader_1x02_P2.00mm_Vertical" H 5950 5900 50  0001 C CNN
F 3 "" H 5950 5900 50  0001 C CNN
	1    5950 5900
	-1   0    0    1   
$EndComp
$Comp
L HWSB-rescue:R R9
U 1 1 5B7F5A72
P 5050 5900
F 0 "R9" V 5130 5900 50  0000 C CNN
F 1 "100" V 5050 5900 50  0000 C CNN
F 2 "Resistor_SMD:R_0805_2012Metric" V 4980 5900 50  0001 C CNN
F 3 "" H 5050 5900 50  0001 C CNN
	1    5050 5900
	0    1    1    0   
$EndComp
$Comp
L HWSB-rescue:Q_NPN_BCE Q8
U 1 1 5B7F5A78
P 5500 6000
F 0 "Q8" H 5700 6050 50  0000 L CNN
F 1 "bc547" H 5700 5950 50  0000 L CNN
F 2 "Package_TO_SOT_SMD:SOT-23" H 5700 6100 50  0001 C CNN
F 3 "" H 5500 6000 50  0001 C CNN
	1    5500 6000
	0    -1   -1   0   
$EndComp
$Comp
L power1:GND #PWR021
U 1 1 5B7F5A7E
P 6200 6100
F 0 "#PWR021" H 6200 5850 50  0001 C CNN
F 1 "GND" H 6200 5950 50  0000 C CNN
F 2 "" H 6200 6100 50  0001 C CNN
F 3 "" H 6200 6100 50  0001 C CNN
	1    6200 6100
	1    0    0    -1  
$EndComp
$Comp
L power1:VCC #PWR013
U 1 1 5B7F5A84
P 4800 5750
F 0 "#PWR013" H 4800 5600 50  0001 C CNN
F 1 "VCC" H 4800 5900 50  0000 C CNN
F 2 "" H 4800 5750 50  0001 C CNN
F 3 "" H 4800 5750 50  0001 C CNN
	1    4800 5750
	1    0    0    -1  
$EndComp
Text Label 2600 5450 0    60   ~ 0
timebase
Text Label 1550 1900 0    60   ~ 0
timebase
$Comp
L HWSB-rescue:POT RV1
U 1 1 5B7F8969
P 6900 1350
F 0 "RV1" V 6725 1350 50  0000 C CNN
F 1 "10K" V 6800 1350 50  0000 C CNN
F 2 "Connector_JST:JST_EH_B2B-EH-A_1x02_P2.50mm_Vertical" H 6900 1350 50  0001 C CNN
F 3 "" H 6900 1350 50  0001 C CNN
	1    6900 1350
	-1   0    0    1   
$EndComp
Wire Wire Line
	10300 1400 10300 1450
Wire Wire Line
	10300 1450 10700 1450
Wire Wire Line
	10300 1750 10050 1750
Connection ~ 10300 1450
Wire Wire Line
	9250 1450 9700 1450
Wire Wire Line
	9700 1450 9700 1400
Wire Wire Line
	9950 1450 9950 1750
Connection ~ 9700 1450
Wire Wire Line
	1000 6350 1400 6350
Wire Wire Line
	1900 5750 1900 5600
Wire Wire Line
	2400 6350 2650 6350
Connection ~ 2650 6350
Wire Wire Line
	1900 6550 1900 6650
Wire Wire Line
	2950 6150 3100 6150
Wire Wire Line
	2650 6650 1900 6650
Connection ~ 1900 6650
Wire Wire Line
	2200 2150 2200 1950
Wire Wire Line
	2200 3350 2200 3450
Wire Wire Line
	1550 2300 1550 2500
Wire Wire Line
	1550 3450 2200 3450
Connection ~ 2200 3450
Connection ~ 1550 2500
Wire Wire Line
	2850 2400 4550 2400
Wire Wire Line
	2850 2600 4400 2600
Wire Wire Line
	1400 5950 700  5950
Wire Wire Line
	700  5950 700  7050
Wire Wire Line
	700  7050 3100 7050
Wire Wire Line
	3100 7050 3100 6350
Connection ~ 3100 6350
Wire Wire Line
	9400 3900 9400 4100
Wire Wire Line
	9400 4900 9400 5100
Wire Wire Line
	10500 5000 10500 5100
Wire Wire Line
	10500 5100 9400 5100
Connection ~ 9400 5100
Wire Wire Line
	9900 4700 10200 4700
Connection ~ 10200 4700
Wire Wire Line
	10200 4600 10200 4700
Wire Wire Line
	9900 3350 9900 3600
Wire Wire Line
	9900 3900 9900 4050
Wire Wire Line
	9600 3650 9600 3500
Wire Wire Line
	9600 3500 9800 3500
Wire Wire Line
	9800 3500 9800 3350
Wire Wire Line
	10200 4300 10200 4050
Wire Wire Line
	10200 4050 9900 4050
Connection ~ 9900 4050
Wire Wire Line
	10400 4700 10400 2850
Wire Wire Line
	10400 2850 8700 2850
Wire Wire Line
	8700 2850 8700 4300
Wire Wire Line
	8700 4300 8900 4300
Connection ~ 10400 4700
Wire Wire Line
	1550 1900 1550 2200
Wire Wire Line
	7600 4500 8900 4500
Wire Wire Line
	4800 950  4900 950 
Wire Wire Line
	5200 950  5300 950 
Wire Wire Line
	5700 950  5800 950 
Wire Wire Line
	6100 950  6200 950 
Wire Wire Line
	4800 800  4800 950 
Wire Wire Line
	6200 950  6200 1150
Wire Wire Line
	4800 1650 4900 1650
Wire Wire Line
	5200 1650 5300 1650
Wire Wire Line
	5700 1650 5800 1650
Wire Wire Line
	6100 1650 6200 1650
Wire Wire Line
	4800 1500 4800 1650
Wire Wire Line
	6200 1650 6200 1850
Wire Wire Line
	4800 2350 4900 2350
Wire Wire Line
	5200 2350 5300 2350
Wire Wire Line
	5700 2350 5800 2350
Wire Wire Line
	6100 2350 6200 2350
Wire Wire Line
	4800 2200 4800 2350
Wire Wire Line
	6200 2350 6200 2550
Wire Wire Line
	4800 3050 4900 3050
Wire Wire Line
	5200 3050 5300 3050
Wire Wire Line
	5700 3050 5800 3050
Wire Wire Line
	6100 3050 6200 3050
Wire Wire Line
	4800 2900 4800 3050
Wire Wire Line
	6200 3050 6200 3250
Wire Wire Line
	4800 3800 4900 3800
Wire Wire Line
	5200 3800 5300 3800
Wire Wire Line
	5700 3800 5800 3800
Wire Wire Line
	6100 3800 6200 3800
Wire Wire Line
	4800 3650 4800 3800
Wire Wire Line
	6200 3800 6200 4000
Wire Wire Line
	4800 4500 4900 4500
Wire Wire Line
	5200 4500 5300 4500
Wire Wire Line
	5700 4500 5800 4500
Wire Wire Line
	6100 4500 6200 4500
Wire Wire Line
	4800 4350 4800 4500
Wire Wire Line
	6200 4500 6200 4700
Wire Wire Line
	4800 5200 4900 5200
Wire Wire Line
	5200 5200 5300 5200
Wire Wire Line
	5700 5200 5800 5200
Wire Wire Line
	6100 5200 6200 5200
Wire Wire Line
	4800 5050 4800 5200
Wire Wire Line
	6200 5200 6200 5400
Wire Wire Line
	4800 5900 4900 5900
Wire Wire Line
	5200 5900 5300 5900
Wire Wire Line
	5700 5900 5800 5900
Wire Wire Line
	6100 5900 6200 5900
Wire Wire Line
	4800 5750 4800 5900
Wire Wire Line
	6200 5900 6200 6100
Wire Wire Line
	4550 2400 4550 2650
Wire Wire Line
	4550 2650 5500 2650
Wire Wire Line
	4400 2600 4400 3350
Wire Wire Line
	4400 3350 5500 3350
Wire Wire Line
	2850 2700 4200 2700
Wire Wire Line
	4200 2700 4200 4100
Wire Wire Line
	4200 4100 5500 4100
Wire Wire Line
	2850 2900 4000 2900
Wire Wire Line
	4000 2900 4000 4800
Wire Wire Line
	4000 4800 5500 4800
Wire Wire Line
	2850 3000 3800 3000
Wire Wire Line
	3800 3000 3800 5500
Wire Wire Line
	3800 5500 5500 5500
Wire Wire Line
	3600 6200 5500 6200
Wire Wire Line
	3600 6200 3600 3100
Wire Wire Line
	3600 3100 2850 3100
Wire Wire Line
	2650 5950 2650 6150
Wire Wire Line
	2400 5950 2600 5950
Wire Wire Line
	2600 5450 2600 5950
Connection ~ 2600 5950
Wire Wire Line
	6900 1200 6900 1150
Wire Wire Line
	6900 1150 6700 1150
Wire Wire Line
	6700 1150 6700 1350
Wire Wire Line
	5800 1350 6700 1350
$Comp
L HWSB-rescue:POT RV2
U 1 1 5B7F8CD0
P 6900 1900
F 0 "RV2" V 6725 1900 50  0000 C CNN
F 1 "10K" V 6800 1900 50  0000 C CNN
F 2 "Connector_JST:JST_EH_B2B-EH-A_1x02_P2.50mm_Vertical" H 6900 1900 50  0001 C CNN
F 3 "" H 6900 1900 50  0001 C CNN
	1    6900 1900
	-1   0    0    1   
$EndComp
Wire Wire Line
	6900 1750 6900 1700
Wire Wire Line
	6900 1700 6700 1700
Wire Wire Line
	6700 1700 6700 1900
Wire Wire Line
	6700 1900 6750 1900
$Comp
L HWSB-rescue:POT RV3
U 1 1 5B7F8E82
P 6900 2500
F 0 "RV3" V 6725 2500 50  0000 C CNN
F 1 "10K" V 6800 2500 50  0000 C CNN
F 2 "Connector_JST:JST_EH_B2B-EH-A_1x02_P2.50mm_Vertical" H 6900 2500 50  0001 C CNN
F 3 "" H 6900 2500 50  0001 C CNN
	1    6900 2500
	-1   0    0    1   
$EndComp
Wire Wire Line
	6900 2350 6900 2300
Wire Wire Line
	6900 2300 6700 2300
Wire Wire Line
	6700 2300 6700 2500
Wire Wire Line
	6500 2500 6700 2500
$Comp
L HWSB-rescue:POT RV5
U 1 1 5B7F8E8C
P 6900 3550
F 0 "RV5" V 6725 3550 50  0000 C CNN
F 1 "10K" V 6800 3550 50  0000 C CNN
F 2 "Connector_JST:JST_EH_B2B-EH-A_1x02_P2.50mm_Vertical" H 6900 3550 50  0001 C CNN
F 3 "" H 6900 3550 50  0001 C CNN
	1    6900 3550
	-1   0    0    1   
$EndComp
Wire Wire Line
	6900 3400 6900 3350
Wire Wire Line
	6900 3350 6700 3350
Wire Wire Line
	6700 3350 6700 3550
Wire Wire Line
	6550 3550 6700 3550
$Comp
L HWSB-rescue:POT RV4
U 1 1 5B7F933A
P 6900 3000
F 0 "RV4" V 6725 3000 50  0000 C CNN
F 1 "10K" V 6800 3000 50  0000 C CNN
F 2 "Connector_JST:JST_EH_B2B-EH-A_1x02_P2.50mm_Vertical" H 6900 3000 50  0001 C CNN
F 3 "" H 6900 3000 50  0001 C CNN
	1    6900 3000
	-1   0    0    1   
$EndComp
Wire Wire Line
	6900 2850 6900 2800
Wire Wire Line
	6900 2800 6700 2800
Wire Wire Line
	6700 2800 6700 3000
Wire Wire Line
	6450 3000 6700 3000
$Comp
L HWSB-rescue:POT RV6
U 1 1 5B7F9344
P 6900 4100
F 0 "RV6" V 6725 4100 50  0000 C CNN
F 1 "10K" V 6800 4100 50  0000 C CNN
F 2 "Connector_JST:JST_EH_B2B-EH-A_1x02_P2.50mm_Vertical" H 6900 4100 50  0001 C CNN
F 3 "" H 6900 4100 50  0001 C CNN
	1    6900 4100
	-1   0    0    1   
$EndComp
Wire Wire Line
	6900 3950 6900 3900
Wire Wire Line
	6900 3900 6700 3900
Wire Wire Line
	6700 3900 6700 4100
Wire Wire Line
	6600 4100 6700 4100
$Comp
L HWSB-rescue:POT RV7
U 1 1 5B7F934E
P 6900 4650
F 0 "RV7" V 6725 4650 50  0000 C CNN
F 1 "10K" V 6800 4650 50  0000 C CNN
F 2 "Connector_JST:JST_EH_B2B-EH-A_1x02_P2.50mm_Vertical" H 6900 4650 50  0001 C CNN
F 3 "" H 6900 4650 50  0001 C CNN
	1    6900 4650
	-1   0    0    1   
$EndComp
Wire Wire Line
	6900 4500 6900 4450
Wire Wire Line
	6900 4450 6700 4450
Wire Wire Line
	6700 4450 6700 4650
Wire Wire Line
	6650 4650 6700 4650
$Comp
L HWSB-rescue:POT RV8
U 1 1 5B7F9358
P 6900 5200
F 0 "RV8" V 6725 5200 50  0000 C CNN
F 1 "10K" V 6800 5200 50  0000 C CNN
F 2 "Connector_JST:JST_EH_B2B-EH-A_1x02_P2.50mm_Vertical" H 6900 5200 50  0001 C CNN
F 3 "" H 6900 5200 50  0001 C CNN
	1    6900 5200
	-1   0    0    1   
$EndComp
Wire Wire Line
	6900 5050 6900 5000
Wire Wire Line
	6900 5000 6700 5000
Wire Wire Line
	6700 5000 6700 5200
Wire Wire Line
	6700 5200 6750 5200
Wire Wire Line
	5800 1250 5800 1350
Connection ~ 5500 1250
Connection ~ 6700 1350
Wire Wire Line
	2850 2300 4500 2300
Wire Wire Line
	4500 2300 4500 1950
Wire Wire Line
	4500 1950 5500 1950
Wire Wire Line
	5950 1950 5950 2050
Connection ~ 5500 1950
Wire Wire Line
	6000 2650 6000 2800
Wire Wire Line
	6000 2800 6500 2800
Wire Wire Line
	6500 2800 6500 2500
Connection ~ 5500 2650
Wire Wire Line
	5950 3350 5950 3500
Wire Wire Line
	5950 3500 6450 3500
Wire Wire Line
	6450 3500 6450 3000
Connection ~ 6700 3000
Connection ~ 5500 3350
Wire Wire Line
	6000 4100 6000 4300
Wire Wire Line
	6000 4300 6550 4300
Wire Wire Line
	6550 4300 6550 3550
Connection ~ 6700 3550
Connection ~ 5500 4100
Wire Wire Line
	6600 4100 6600 4950
Wire Wire Line
	6600 4950 6000 4950
Wire Wire Line
	6000 4950 6000 4800
Connection ~ 5500 4800
Connection ~ 6700 4100
Wire Wire Line
	6650 4650 6650 5150
Wire Wire Line
	6650 5150 6400 5150
Wire Wire Line
	6400 5150 6400 5650
Wire Wire Line
	6400 5650 5900 5650
Wire Wire Line
	5900 5650 5900 5500
Connection ~ 5500 5500
Connection ~ 6700 4650
Wire Wire Line
	6000 6200 6000 6350
Wire Wire Line
	6000 6350 6700 6350
Connection ~ 6700 5200
Connection ~ 5500 6200
Wire Wire Line
	5950 2050 6700 2050
Connection ~ 6700 1900
Connection ~ 6700 2500
Wire Wire Line
	6900 1500 7600 1500
Wire Wire Line
	7600 1500 7600 2050
Wire Wire Line
	7600 5350 6900 5350
Connection ~ 7600 4500
Wire Wire Line
	6900 4800 7600 4800
Connection ~ 7600 4800
Wire Wire Line
	6900 4250 7600 4250
Connection ~ 7600 4250
Wire Wire Line
	6900 3700 7600 3700
Connection ~ 7600 3700
Wire Wire Line
	6900 3150 7600 3150
Connection ~ 7600 3150
Wire Wire Line
	6900 2650 7600 2650
Connection ~ 7600 2650
Wire Wire Line
	6900 2050 7600 2050
Connection ~ 7600 2050
Wire Wire Line
	4350 1250 5500 1250
Wire Wire Line
	4350 1250 4350 2200
Wire Wire Line
	4350 2200 2850 2200
$Comp
L power1:VCC #PWR022
U 1 1 5B7FD738
P 8550 4700
F 0 "#PWR022" H 8550 4550 50  0001 C CNN
F 1 "VCC" H 8550 4850 50  0000 C CNN
F 2 "" H 8550 4700 50  0001 C CNN
F 3 "" H 8550 4700 50  0001 C CNN
	1    8550 4700
	1    0    0    -1  
$EndComp
Wire Wire Line
	8550 4700 8550 4750
Wire Wire Line
	8550 4750 8900 4750
Wire Wire Line
	8900 4750 8900 4700
Text Notes 4000 6550 0    60   ~ 0
display current time-selected activated potentiometer
Text Notes 7850 3950 1    60   ~ 0
potentiometer tochange each tone line\n
Wire Wire Line
	10300 1450 10300 1750
Wire Wire Line
	9700 1450 9950 1450
Wire Wire Line
	2650 6350 3100 6350
Wire Wire Line
	1900 6650 1900 6700
Wire Wire Line
	2200 3450 2200 3550
Wire Wire Line
	1550 2500 1550 3450
Wire Wire Line
	3100 6350 3100 6150
Wire Wire Line
	9400 5100 9400 5150
Wire Wire Line
	10200 4700 10400 4700
Wire Wire Line
	9900 4050 9900 4300
Wire Wire Line
	10400 4700 10500 4700
Wire Wire Line
	2600 5950 2650 5950
Wire Wire Line
	5500 1250 5800 1250
Wire Wire Line
	6700 1350 6750 1350
Wire Wire Line
	5500 1950 5950 1950
Wire Wire Line
	5500 2650 6000 2650
Wire Wire Line
	6700 3000 6750 3000
Wire Wire Line
	5500 3350 5950 3350
Wire Wire Line
	6700 3550 6750 3550
Wire Wire Line
	5500 4100 6000 4100
Wire Wire Line
	5500 4800 6000 4800
Wire Wire Line
	6700 4100 6750 4100
Wire Wire Line
	5500 5500 5900 5500
Wire Wire Line
	6700 4650 6750 4650
Wire Wire Line
	6700 5200 6700 6350
Wire Wire Line
	5500 6200 6000 6200
Wire Wire Line
	6700 1900 6700 2050
Wire Wire Line
	6700 2500 6750 2500
Wire Wire Line
	7600 4500 7600 4800
Wire Wire Line
	7600 4800 7600 5350
Wire Wire Line
	7600 4250 7600 4500
Wire Wire Line
	7600 3700 7600 4250
Wire Wire Line
	7600 3150 7600 3700
Wire Wire Line
	7600 2650 7600 3150
Wire Wire Line
	7600 2050 7600 2650
$EndSCHEMATC
